0.000000
0.000000
0.000000
0.000000
0.000000
0.000000
0.000000
0.000000
0.000000
0.000000
0.000000
0.000000
0.000000
0.000000
0.000000
0.000000
0.000000
0.000000
0.000000
0.000000
0.000000
0.000000
0.000000
0.000000
0.000000
0.000000
0.000000
0.000000
0.000000
0.000000
0.000000
0.000000
0.000000
0.000000
0.000000
0.000000
0.000000
0.000000
0.000000
0.000000
0.000000
0.000000
0.000000
0.000000
0.000000
0.000000
0.000000
0.000000
0.000000
0.000000
0.000000
0.000000
0.000000
0.000000
0.000000
0.000000
0.000000
0.000000
0.000000
0.000000
0.000000
0.000000
0.000000
0.000000
0.000000
0.000000
0.000000
0.000000
0.000000
0.000000
0.000000
0.000000
0.000000
0.000000
0.000000
0.000000
0.000000
0.000000
0.000000
0.000000
0.000000
0.000000
0.000000
0.000000
0.000000
0.000000
0.000000
0.000000
0.011236
0.011111
0.010989
0.010870
0.010753
0.010638
0.010526
0.010417
0.010309
0.010204
0.010101
0.010000
0.010000
0.010000
0.010000
0.010000
0.010000
0.010000
0.010000
0.010000
0.010000
0.010000
0.010000
0.010000
0.010000
0.010000
0.010000
0.010000
0.010000
0.010000
0.010000
0.010000
0.010000
0.010000
0.010000
0.010000
0.010000
0.010000
0.010000
0.010000
0.010000
0.010000
0.010000
0.010000
0.010000
0.010000
0.010000
0.010000
0.010000
0.010000
0.010000
0.020000
0.020000
0.020000
0.020000
0.020000
0.020000
0.020000
0.020000
0.020000
0.020000
0.020000
0.020000
0.020000
0.020000
0.020000
0.020000
0.020000
0.020000
0.020000
0.020000
0.020000
0.020000
0.020000
0.020000
0.020000
0.020000
0.020000
0.020000
0.020000
0.020000
0.020000
0.020000
0.020000
0.020000
0.020000
0.020000
0.020000
0.020000
0.020000
0.020000
0.020000
0.020000
0.020000
0.020000
0.020000
0.020000
0.020000
0.020000
0.020000
0.020000
0.020000
0.020000
0.020000
0.020000
0.020000
0.020000
0.020000
0.020000
0.010000
0.010000
0.010000
0.010000
0.010000
0.010000
0.010000
0.010000
0.010000
0.010000
0.010000
0.010000
0.010000
0.010000
0.010000
0.010000
0.010000
0.010000
0.010000
0.010000
0.010000
0.010000
0.010000
0.010000
0.010000
0.010000
0.010000
0.010000
0.010000
0.010000
0.010000
0.020000
0.020000
0.020000
0.020000
0.020000
0.020000
0.020000
0.020000
0.020000
0.020000
0.020000
0.020000
0.020000
0.020000
0.020000
0.020000
0.020000
0.020000
0.020000
0.020000
0.020000
0.020000
0.020000
0.020000
0.020000
0.020000
0.020000
0.020000
0.020000
0.020000
0.020000
0.020000
0.020000
0.020000
0.020000
0.020000
0.020000
0.020000
0.020000
0.020000
0.020000
0.020000
0.020000
0.020000
0.020000
0.020000
0.020000
0.020000
0.020000
0.020000
0.020000
0.020000
0.020000
0.020000
0.020000
0.020000
0.020000
0.020000
0.020000
0.020000
0.020000
0.020000
0.020000
0.020000
0.020000
0.020000
0.020000
0.020000
0.020000
0.020000
0.020000
0.020000
0.020000
0.020000
0.020000
0.020000
0.020000
0.020000
0.020000
0.020000
0.030000
0.030000
0.030000
0.030000
0.030000
0.030000
0.030000
0.030000
0.030000
0.030000
0.020000
0.020000
0.020000
0.020000
0.020000
0.020000
0.020000
0.020000
0.020000
0.020000
0.020000
0.020000
0.020000
0.020000
0.020000
0.020000
0.020000
0.020000
0.020000
0.020000
0.020000
0.030000
0.030000
0.030000
0.030000
0.030000
0.030000
0.030000
0.030000
0.030000
0.030000
0.030000
0.020000
0.020000
0.020000
0.020000
0.020000
0.020000
0.020000
0.020000
0.020000
0.020000
0.020000
0.020000
0.020000
0.010000
0.000000
0.000000
0.000000
0.000000
0.000000
0.000000
0.000000
0.000000
0.000000
0.000000
0.000000
0.000000
0.000000
0.000000
0.000000
0.000000
0.000000
0.000000
0.000000
0.000000
0.000000
0.000000
0.000000
0.000000
0.000000
0.000000
0.000000
0.000000
0.000000
0.000000
0.000000
0.000000
0.000000
0.000000
0.000000
0.000000
0.000000
0.000000
0.000000
0.000000
0.000000
0.000000
0.000000
0.000000
0.000000
0.000000
0.000000
0.000000
0.000000
0.000000
0.000000
0.000000
0.000000
0.000000
0.000000
0.000000
0.000000
0.000000
0.000000
0.000000
0.000000
0.000000
0.000000
0.000000
0.000000
0.000000
0.000000
0.000000
0.000000
0.000000
0.000000
0.000000
0.000000
0.000000
0.000000
0.000000
0.000000
0.000000
0.000000
0.000000
0.000000
0.000000
0.000000
0.000000
0.000000
0.000000
0.000000
0.000000
0.000000
0.000000
0.010000
0.010000
0.010000
0.000000
0.000000
0.000000
0.000000
0.000000
0.000000
0.000000
0.000000
0.000000
0.000000
0.000000
0.010000
0.010000
0.010000
0.010000
0.010000
0.010000
0.010000
0.010000
0.010000
0.010000
0.010000
0.010000
0.010000
0.010000
0.010000
0.010000
0.010000
0.010000
0.010000
0.010000
0.010000
0.010000
0.010000
0.010000
0.010000
0.010000
0.010000
0.010000
0.010000
0.010000
0.010000
0.010000
0.010000
0.010000
0.010000
0.010000
0.010000
0.010000
0.010000
0.010000
0.010000
0.010000
0.010000
0.010000
0.010000
0.010000
0.010000
0.010000
0.010000
0.010000
0.010000
0.010000
0.010000
0.010000
0.010000
0.010000
0.010000
0.010000
0.010000
0.010000
0.010000
0.010000
0.010000
0.020000
0.020000
0.020000
0.020000
0.020000
0.020000
0.020000
0.020000
0.020000
0.020000
0.020000
0.020000
0.020000
0.020000
0.020000
0.020000
0.020000
0.020000
0.020000
0.020000
0.020000
0.020000
0.020000
0.020000
0.020000
0.020000
0.020000
0.020000
0.020000
0.020000
0.020000
0.020000
0.020000
0.030000
0.030000
0.020000
0.020000
0.020000
0.020000
0.020000
0.020000
0.020000
0.020000
0.020000
0.020000
0.020000
0.020000
0.020000
0.020000
0.020000
0.020000
0.020000
0.020000
0.010000
0.010000
0.010000
0.010000
0.010000
0.010000
0.010000
0.010000
0.010000
0.010000
0.010000
0.010000
0.010000
0.010000
0.010000
0.010000
0.010000
0.010000
0.010000
0.010000
0.010000
0.010000
0.010000
0.010000
0.010000
0.010000
0.010000
0.010000
0.010000
0.010000
0.010000
0.010000
0.010000
0.010000
0.010000
0.010000
0.010000
0.010000
0.010000
0.010000
0.010000
0.010000
0.000000
0.000000
0.000000
0.000000
0.000000
0.000000
0.000000
0.000000
0.000000
0.000000
0.000000
0.000000
0.000000
0.000000
0.000000
0.000000
0.000000
0.000000
0.000000
0.000000
0.000000
0.000000
0.000000
0.000000
0.000000
0.000000
0.000000
0.000000
0.000000
0.000000
0.000000
0.000000
0.000000
0.000000
0.000000
0.000000
0.000000
0.000000
0.000000
0.000000
0.000000
0.000000
0.000000
0.000000
0.000000
0.010000
0.010000
0.010000
0.010000
0.000000
0.000000
0.000000
0.000000
0.000000
0.000000
0.000000
0.000000
0.000000
0.000000
0.000000
0.000000
0.000000
0.000000
0.000000
0.000000
0.000000
0.000000
0.000000
0.000000
0.000000
0.000000
0.000000
0.000000
0.010000
0.010000
0.010000
0.010000
0.010000
0.010000
0.010000
0.010000
0.010000
0.010000
0.010000
0.010000
0.010000
0.010000
0.010000
0.010000
0.050000
0.050000
0.050000
0.050000
0.050000
0.050000
0.050000
0.050000
0.050000
0.050000
0.050000
0.050000
0.050000
0.050000
0.050000
0.050000
0.050000
0.050000
0.050000
0.050000
0.050000
0.050000
0.050000
0.050000
0.050000
0.050000
0.050000
0.050000
0.050000
0.050000
0.050000
0.050000
0.050000
0.050000
0.050000
0.050000
0.050000
0.040000
0.040000
0.040000
0.040000
0.040000
0.040000
0.040000
0.040000
0.040000
0.040000
0.030000
0.030000
0.030000
0.030000
0.030000
0.030000
0.030000
0.030000
0.030000
0.030000
0.030000
0.030000
0.030000
0.030000
0.030000
0.030000
0.030000
0.030000
0.030000
0.030000
0.030000
0.030000
0.030000
0.030000
0.030000
0.030000
0.030000
0.030000
0.030000
0.030000
0.030000
0.030000
0.030000
0.030000
0.030000
0.030000
0.030000
0.030000
0.030000
0.030000
0.030000
0.030000
0.030000
0.030000
0.030000
0.040000
0.030000
0.030000
0.030000
0.030000
0.030000
0.030000
0.040000
0.040000
0.040000
0.040000
0.040000
0.040000
0.040000
0.040000
0.040000
0.040000
0.030000
0.030000
0.030000
0.030000
0.030000
0.030000
0.030000
0.030000
0.030000
0.030000
0.030000
0.030000
0.030000
0.030000
0.030000
0.030000
0.030000
0.030000
0.030000
0.030000
0.030000
0.030000
0.030000
0.030000
0.030000
0.030000
0.030000
0.030000
0.030000
0.030000
0.030000
0.040000
0.040000
0.040000
0.030000
0.030000
0.030000
0.030000
0.030000
0.030000
0.030000
0.030000
0.020000
0.020000
0.020000
0.020000
0.020000
0.020000
0.020000
0.020000
0.020000
0.020000
0.020000
0.020000
0.020000
0.020000
0.020000
0.020000
0.020000
0.020000
0.020000
0.020000
0.020000
0.020000
0.020000
0.020000
0.020000
0.020000
0.020000
0.020000
0.020000
0.010000
0.020000
0.020000
0.020000
0.020000
0.020000
0.020000
0.020000
0.020000
0.020000
0.020000
0.020000
0.020000
0.020000
0.020000
0.020000
0.020000
0.020000
0.020000
0.020000
0.020000
0.030000
0.030000
0.030000
0.030000
0.030000
0.030000
0.030000
0.030000
0.030000
0.030000
0.030000
0.030000
0.030000
0.030000
0.030000
0.030000
0.030000
0.030000
0.030000
0.030000
0.030000
0.030000
0.030000
0.030000
0.030000
0.030000
0.030000
0.030000
0.030000
0.030000
0.030000
0.030000
0.030000
0.030000
0.030000
0.030000
0.030000
0.030000
0.030000
0.030000
0.020000
0.020000
0.020000
0.020000
0.030000
0.030000
0.030000
0.030000
0.020000
0.020000
0.020000
0.020000
0.020000
0.020000
0.020000
0.020000
0.020000
0.020000
0.020000
0.020000
0.020000
0.020000
0.020000
0.020000
0.020000
0.020000
0.020000
0.020000
0.020000
0.020000
0.020000
0.020000
0.020000
0.020000
0.020000
0.020000
0.020000
0.020000
0.020000
0.020000
0.020000
0.020000
0.020000
0.020000
0.020000
0.020000
0.020000
0.020000
0.020000
0.020000
0.020000
0.020000
0.020000
0.020000
0.020000
0.020000
0.020000
0.020000
0.020000
0.020000
0.020000
0.020000
0.020000
0.020000
0.020000
0.020000
0.020000
0.020000
0.020000
0.020000
0.020000
0.020000
0.020000
0.020000
0.020000
0.020000
0.020000
0.020000
0.020000
0.020000
0.020000
0.010000
0.010000
0.010000
0.010000
0.010000
0.010000
0.010000
0.010000
0.010000
0.010000
0.010000
0.010000
0.010000
0.000000
0.000000
0.000000
0.000000
0.000000
0.000000
0.000000
0.000000
0.000000
0.000000
0.000000
0.000000
0.000000
0.010000
0.010000
0.010000
0.010000
0.010000
0.010000
0.020000
0.020000
0.020000
0.020000
0.020000
0.020000
0.020000
0.020000
0.020000
0.020000
0.020000
0.020000
0.020000
0.020000
0.020000
0.020000
0.020000
0.020000
0.020000
0.020000
0.020000
0.020000
0.020000
0.020000
0.020000
0.020000
0.030000
0.030000
0.030000
0.030000
0.030000
0.030000
0.030000
0.030000
0.030000
0.030000
0.030000
0.030000
0.030000
0.030000
0.030000
0.030000
0.030000
0.030000
0.030000
0.030000
0.030000
0.030000
0.040000
0.040000
0.040000
0.040000
0.040000
0.030000
0.030000
0.030000
0.030000
0.030000
0.030000
0.030000
0.030000
0.030000
0.030000
0.030000
0.030000
0.030000
0.030000
0.030000
0.030000
0.030000
0.030000
0.030000
0.030000
0.030000
0.020000
0.010000
0.010000
0.010000
0.010000
0.010000
0.010000
0.020000
0.020000
0.020000
0.020000
0.030000
0.030000
0.030000
0.030000
0.030000
0.030000
0.030000
0.030000
0.030000
0.030000
0.030000
0.030000
0.030000
0.030000
0.030000
0.030000
0.030000
0.030000
0.030000
0.030000
0.030000
0.030000
0.030000
0.030000
0.030000
0.030000
0.030000
0.030000
0.030000
0.030000
0.030000
0.030000
0.030000
0.030000
0.030000
0.030000
0.030000
0.030000
0.030000
0.030000
0.030000
0.030000
0.030000
0.030000
0.030000
0.030000
0.030000
0.030000
0.030000
0.030000
0.030000
0.030000
0.030000
0.030000
0.030000
0.030000
0.030000
0.030000
0.030000
0.040000
0.040000
0.030000
0.030000
0.030000
0.030000
0.030000
0.030000
0.030000
0.030000
0.030000
0.030000
0.030000
0.030000
0.030000
0.020000
0.020000
0.020000
0.020000
0.020000
0.020000
0.020000
0.030000
0.030000
0.030000
0.030000
0.030000
0.030000
0.030000
0.030000
0.030000
0.030000
0.030000
0.030000
0.030000
0.030000
0.030000
0.030000
0.030000
0.030000
0.030000
0.030000
0.030000
0.030000
0.030000
0.030000
0.030000
0.030000
0.030000
0.030000
0.030000
0.030000
0.030000
0.030000
0.030000
0.030000
0.030000
0.030000
0.030000
0.030000
0.030000
0.030000
0.030000
0.030000
0.030000
0.030000
0.030000
0.030000
0.020000
0.020000
0.020000
0.020000
0.020000
0.020000
0.020000
0.020000
0.010000
0.010000
0.020000
0.020000
0.020000
0.020000
0.020000
0.020000
0.020000
0.020000
0.020000
0.020000
0.020000
0.020000
0.020000
0.020000
0.020000
0.020000
0.020000
0.020000
0.020000
0.020000
0.010000
0.010000
0.000000
0.000000
0.000000
0.000000
0.000000
0.000000
0.000000
0.000000
0.000000
0.000000
0.000000
0.000000
0.000000
0.000000
0.000000
0.000000
0.000000
0.000000
0.000000
0.000000
0.000000
0.000000
0.000000
0.000000
0.000000
0.000000
0.000000
0.000000
0.000000
0.000000
0.000000
0.000000
0.000000
0.000000
0.000000
0.000000
0.000000
0.000000
0.000000
0.000000
0.000000
0.000000
0.000000
0.000000
0.000000
0.000000
0.000000
0.000000
0.000000
0.010000
0.010000
0.010000
0.010000
0.010000
0.010000
0.000000
0.010000
0.010000
0.010000
0.010000
0.010000
0.010000
0.010000
0.010000
0.010000
0.010000
0.010000
0.010000
0.010000
0.010000
0.010000
0.010000
0.010000
0.010000
0.010000
0.010000
0.010000
0.020000
0.020000
0.020000
0.020000
0.020000
0.020000
0.020000
0.020000
0.020000
0.020000
0.010000
0.010000
0.010000
0.010000
0.010000
0.010000
0.010000
0.010000
0.010000
0.010000
0.010000
0.010000
0.010000
0.010000
0.010000
0.010000
0.010000
0.010000
0.010000
0.010000
0.010000
0.010000
0.010000
0.010000
0.010000
0.010000
0.010000
0.010000
0.010000
0.010000
0.010000
0.010000
0.010000
0.010000
0.010000
0.010000
0.010000
0.010000
0.010000
0.010000
0.010000
0.010000
0.010000
0.010000
0.010000
0.010000
0.010000
0.010000
0.010000
0.010000
0.010000
0.010000
0.010000
0.010000
0.010000
0.010000
0.010000
0.010000
0.010000
0.010000
0.010000
0.010000
0.010000
0.010000
0.010000
0.010000
0.010000
0.010000
0.020000
0.020000
0.020000
0.020000
0.020000
0.020000
0.030000
0.030000
0.030000
0.030000
0.030000
0.030000
0.030000
0.030000
0.030000
0.030000
0.030000
0.030000
0.030000
0.030000
0.030000
0.030000
0.030000
0.030000
0.030000
0.030000
0.030000
0.030000
0.030000
0.030000
0.030000
0.030000
0.030000
0.030000
0.030000
0.030000
0.030000
0.030000
0.030000
0.030000
0.030000
0.030000
0.030000
0.030000
0.030000
0.030000
0.030000
0.030000
0.030000
0.020000
0.020000
0.020000
0.030000
0.030000
0.030000
0.020000
0.020000
0.020000
0.020000
0.020000
0.020000
0.020000
0.020000
0.010000
0.010000
0.010000
0.010000
0.010000
0.010000
0.010000
0.010000
0.010000
0.010000
0.010000
0.010000
0.010000
0.010000
0.010000
0.010000
0.010000
0.010000
0.010000
0.010000
0.010000
0.010000
0.010000
0.000000
0.000000
0.000000
0.000000
0.000000
0.000000
0.000000
0.000000
0.000000
0.000000
0.000000
0.000000
0.000000
0.000000
0.000000
0.000000
0.000000
0.000000
0.000000
0.000000
0.000000
0.000000
0.000000
0.000000
0.000000
0.000000
0.000000
0.000000
0.000000
0.000000
0.000000
0.010000
0.010000
0.010000
0.010000
0.010000
0.010000
0.010000
0.010000
0.010000
0.010000
0.010000
0.010000
0.010000
0.010000
0.010000
0.010000
0.010000
0.010000
0.010000
0.010000
0.010000
0.010000
0.010000
0.010000
0.010000
0.010000
0.010000
0.000000
0.000000
0.010000
0.010000
0.010000
0.010000
0.010000
0.010000
0.010000
0.010000
0.010000
0.010000
0.010000
0.010000
0.010000
0.010000
0.010000
0.010000
0.010000
0.010000
0.010000
0.010000
0.010000
0.010000
0.010000
0.010000
0.010000
0.020000
0.020000
0.020000
0.020000
0.020000
0.020000
0.020000
0.020000
0.020000
0.020000
0.020000
0.020000
0.020000
0.020000
0.020000
0.020000
0.020000
0.020000
0.020000
0.020000
0.020000
0.020000
0.020000
0.020000
0.020000
0.020000
0.020000
0.020000
0.020000
0.020000
0.020000
0.030000
0.030000
0.030000
0.030000
0.030000
0.030000
0.030000
0.030000
0.030000
0.030000
0.040000
0.040000
0.120000
0.120000
0.120000
0.120000
0.120000
0.120000
0.120000
0.120000
0.120000
0.120000
0.120000
0.120000
0.110000
0.110000
0.110000
0.110000
0.110000
0.110000
0.110000
0.110000
0.110000
0.110000
0.110000
0.110000
0.110000
0.110000
0.110000
0.110000
0.100000
0.120000
0.120000
0.120000
0.120000
0.120000
0.120000
0.120000
0.120000
0.120000
0.120000
0.120000
0.120000
0.120000
0.120000
0.120000
0.120000
0.120000
0.120000
0.120000
0.130000
0.130000
0.130000
0.130000
0.130000
0.130000
0.130000
0.130000
0.130000
0.130000
0.130000
0.130000
0.130000
0.130000
0.130000
0.130000
0.130000
0.130000
0.130000
0.130000
0.130000
0.130000
0.130000
0.120000
0.120000
0.120000
0.120000
0.120000
0.120000
0.120000
0.120000
0.120000
0.120000
0.120000
0.120000
0.120000
0.120000
0.120000
0.120000
0.120000
0.120000
0.120000
0.120000
0.120000
0.110000
0.140000
0.140000
0.140000
0.140000
0.140000
0.140000
0.140000
0.140000
0.140000
0.130000
0.220000
0.220000
0.220000
0.220000
0.220000
0.220000
0.210000
0.210000
0.210000
0.210000
0.210000
0.210000
0.210000
0.210000
0.210000
0.210000
0.210000
0.210000
0.210000
0.210000
0.220000
0.210000
0.220000
0.220000
0.220000
0.220000
0.220000
0.220000
0.220000
0.220000
0.220000
0.220000
0.220000
0.220000
0.220000
0.220000
0.220000
0.220000
0.220000
0.220000
0.220000
0.220000
0.220000
0.230000
0.230000
0.230000
0.230000
0.230000
0.270000
0.270000
0.270000
0.270000
0.270000
0.270000
0.270000
0.270000
0.270000
0.270000
0.270000
0.270000
0.270000
0.290000
0.290000
0.290000
0.290000
0.290000
0.290000
0.290000
0.290000
0.290000
0.290000
0.270000
0.270000
0.280000
0.280000
0.280000
0.280000
0.280000
0.280000
0.280000
0.270000
0.280000
0.280000
0.280000
0.280000
0.280000
0.280000
0.280000
0.280000
0.280000
0.280000
0.280000
0.280000
0.280000
0.270000
0.270000
0.270000
0.270000
0.270000
0.270000
0.270000
0.270000
0.270000
0.270000
0.270000
0.270000
0.270000
0.270000
0.270000
0.270000
0.270000
0.270000
0.270000
0.260000
0.260000
0.260000
0.250000
0.250000
0.250000
0.250000
0.250000
0.250000
0.250000
0.250000
0.250000
0.250000
0.250000
0.250000
0.260000
0.260000
0.260000
0.260000
0.240000
0.240000
0.240000
0.240000
0.230000
0.230000
0.230000
0.230000
0.230000
0.230000
0.230000
0.230000
0.230000
0.230000
0.230000
0.230000
0.230000
0.230000
0.230000
0.230000
0.230000
0.230000
0.230000
0.210000
0.210000
0.210000
0.210000
0.190000
0.200000
0.200000
0.200000
0.200000
0.210000
0.210000
0.210000
0.210000
0.210000
0.210000
0.210000
0.210000
0.200000
0.200000
0.200000
0.200000
0.200000
0.200000
0.210000
0.210000
0.210000
0.210000
0.210000
0.210000
0.210000
0.210000
0.210000
0.210000
0.210000
0.210000
0.210000
0.210000
0.200000
0.200000
0.190000
0.190000
0.190000
0.190000
0.190000
0.190000
0.190000
0.190000
0.190000
0.190000
0.190000
0.190000
0.190000
0.190000
0.190000
0.190000
0.190000
0.190000
0.180000
0.220000
0.220000
0.220000
0.220000
0.220000
0.220000
0.220000
0.220000
0.220000
0.220000
0.210000
0.290000
0.280000
0.280000
0.280000
0.280000
0.280000
0.280000
0.280000
0.280000
0.280000
0.270000
0.300000
0.300000
0.290000
0.290000
0.290000
0.290000
0.290000
0.290000
0.290000
0.290000
0.290000
0.270000
0.270000
0.270000
0.280000
0.280000
0.280000
0.280000
0.280000
0.280000
0.280000
0.280000
0.270000
0.270000
0.270000
0.270000
0.270000
0.270000
0.270000
0.270000
0.270000
0.270000
0.270000
0.270000
0.260000
0.340000
0.340000
0.340000
0.340000
0.340000
0.330000
0.330000
0.330000
0.330000
0.330000
0.330000
0.330000
0.330000
0.330000
0.340000
0.340000
0.330000
0.330000
0.330000
0.330000
0.330000
0.330000
0.320000
0.320000
0.320000
0.320000
0.320000
0.320000
0.320000
0.320000
0.320000
0.320000
0.320000
0.320000
0.320000
0.320000
0.320000
0.320000
0.320000
0.320000
0.320000
0.330000
0.330000
0.330000
0.330000
0.330000
0.330000
0.330000
0.330000
0.330000
0.330000
0.330000
0.320000
0.320000
0.320000
0.320000
0.320000
0.310000
0.310000
0.310000
0.310000
0.300000
0.300000
0.300000
0.300000
0.300000
0.290000
0.290000
0.290000
0.280000
0.280000
0.280000
0.280000
0.280000
0.280000
0.280000
0.280000
0.280000
0.260000
0.260000
0.260000
0.260000
0.260000
0.260000
0.260000
0.260000
0.260000
0.260000
0.260000
0.310000
0.310000
0.300000
0.310000
0.310000
0.310000
0.330000
0.330000
0.320000
0.320000
0.320000
0.320000
0.320000
0.320000
0.320000
0.320000
0.320000
0.320000
0.320000
0.320000
0.300000
0.360000
0.360000
0.360000
0.360000
0.350000
0.350000
0.350000
0.350000
0.350000
0.350000
0.340000
0.340000
0.340000
0.340000
0.340000
0.340000
0.340000
0.330000
0.330000
0.330000
0.330000
0.330000
0.320000
0.310000
0.310000
0.310000
0.310000
0.290000
0.280000
0.270000
0.300000
0.290000
0.290000
0.290000
0.330000
0.330000
0.330000
0.330000
0.330000
0.320000
0.320000
0.320000
0.320000
0.320000
0.320000
0.320000
0.320000
0.320000
0.320000
0.320000
0.320000
0.320000
0.310000
0.310000
0.310000
0.310000
0.310000
0.310000
0.300000
0.290000
0.290000
0.290000
0.280000
0.280000
0.280000
0.280000
0.280000
0.280000
0.280000
0.280000
0.330000
0.330000
0.330000
0.330000
0.330000
0.330000
0.330000
0.330000
0.330000
0.330000
0.330000
0.330000
0.330000
0.330000
0.330000
0.330000
0.330000
0.330000
0.330000
0.320000
0.320000
0.320000
0.320000
0.330000
0.330000
0.330000
0.330000
0.330000
0.330000
0.330000
0.330000
0.330000
0.330000
0.330000
0.330000
0.330000
0.330000
0.330000
0.330000
0.330000
0.330000
0.330000
0.330000
0.330000
0.330000
0.330000
0.330000
0.330000
0.330000
0.320000
0.320000
0.320000
0.320000
0.320000
0.320000
0.320000
0.320000
0.310000
0.330000
0.330000
0.320000
0.320000
0.320000
0.320000
0.320000
0.320000
0.310000
0.310000
0.310000
0.310000
0.310000
0.310000
0.310000
0.310000
0.310000
0.310000
0.310000
0.310000
0.310000
0.310000
0.300000
0.310000
0.300000
0.300000
0.300000
0.300000
0.300000
0.300000
0.300000
0.290000
0.290000
0.290000
0.290000
0.290000
0.290000
0.330000
0.330000
0.330000
0.330000
0.330000
0.370000
0.360000
0.360000
0.360000
0.360000
0.360000
0.360000
0.360000
0.360000
0.360000
0.360000
0.360000
0.360000
0.360000
0.360000
0.360000
0.360000
0.350000
0.350000
0.340000
0.340000
0.330000
0.390000
0.390000
0.380000
0.380000
0.380000
0.380000
0.380000
0.380000
0.380000
0.400000
0.400000
0.400000
0.400000
0.400000
0.390000
0.380000
0.380000
0.380000
0.370000
0.450000
0.450000
0.450000
0.450000
0.450000
0.450000
0.450000
0.450000
0.450000
0.450000
0.450000
0.450000
0.450000
0.450000
0.450000
0.450000
0.450000
0.450000
0.450000
0.440000
0.440000
0.430000
0.430000
0.430000
0.430000
0.420000
0.410000
0.410000
0.410000
0.410000
0.410000
0.410000
0.410000
0.410000
0.410000
0.410000
0.410000
0.410000
0.470000
0.470000
0.470000
0.470000
0.470000
0.470000
0.470000
0.470000
0.470000
0.470000
0.470000
0.470000
0.470000
0.460000
0.500000
0.500000
0.500000
0.500000
0.500000
0.500000
0.500000
0.500000
0.500000
0.490000
0.490000
0.470000
0.510000
0.510000
0.510000
0.510000
0.510000
0.500000
0.500000
0.500000
0.500000
0.500000
0.500000
0.490000
0.490000
0.490000
0.490000
0.490000
0.490000
0.490000
0.490000
0.490000
0.490000
0.490000
0.490000
0.490000
0.490000
0.490000
0.480000
0.480000
0.480000
0.480000
0.470000
0.530000
0.530000
0.530000
0.530000
0.530000
0.530000
0.530000
0.530000
0.530000
0.530000
0.530000
0.510000
0.510000
0.510000
0.510000
0.510000
0.510000
0.510000
0.510000
0.510000
0.510000
0.510000
0.510000
0.500000
0.520000
0.520000
0.520000
0.520000
0.520000
0.520000
0.510000
0.510000
0.500000
0.500000
0.540000
0.540000
0.540000
0.540000
0.540000
0.540000
0.540000
0.540000
0.540000
0.540000
0.540000
0.540000
0.540000
0.540000
0.570000
0.580000
0.570000
0.610000
0.610000
0.600000
0.670000
0.670000
0.670000
0.660000
0.660000
0.650000
0.650000
0.630000
0.620000
0.620000
0.620000
0.620000
0.620000
0.620000
0.610000
0.610000
0.610000
0.610000
0.610000
0.610000
0.600000
0.600000
0.600000
0.600000
0.590000
0.600000
0.610000
0.600000
0.650000
0.650000
0.640000
0.640000
0.640000
0.640000
0.640000
0.640000
0.640000
0.640000
0.630000
0.670000
0.670000
0.670000
0.670000
0.670000
0.670000
0.670000
0.670000
0.670000
0.670000
0.670000
0.670000
0.660000
0.690000
0.750000
0.750000
0.750000
0.750000
0.750000
0.750000
0.740000
0.740000
0.740000
0.730000
0.730000
0.730000
0.730000
0.730000
0.730000
0.730000
0.730000
0.740000
0.730000
0.740000
0.730000
0.780000
0.780000
0.770000
0.770000
0.760000
0.760000
0.750000
0.750000
0.750000
0.750000
0.750000
0.750000
0.750000
0.750000
0.750000
0.750000
0.740000
0.780000
0.760000
0.750000
0.750000
0.750000
0.750000
0.750000
0.750000
0.750000
0.750000
0.750000
0.750000
0.740000
0.740000
0.740000
0.740000
0.740000
0.740000
0.740000
0.730000
0.780000
0.780000
0.770000
0.810000
0.810000
0.810000
0.810000
0.810000
0.810000
0.800000
0.830000
0.830000
0.830000
0.830000
0.840000
0.870000
0.870000
0.870000
0.870000
0.860000
0.890000
0.890000
0.890000
0.890000
0.880000
0.880000
0.870000
0.870000
0.920000
0.920000
0.920000
0.920000
0.910000
0.900000
0.910000
0.900000
0.900000
0.900000
0.900000
0.900000
0.900000
0.900000
0.890000
0.920000
0.920000
0.920000
0.920000
0.920000
0.920000
0.920000
0.910000
0.910000
0.910000
0.900000
0.920000
0.910000
0.910000
0.910000
0.910000
0.910000
0.910000
0.900000
0.900000
0.890000
0.890000
0.880000
0.880000
0.960000
0.960000
0.960000
0.960000
0.950000
0.990000
0.980000
0.980000
0.980000
0.970000
1.010000
1.000000
1.030000
1.030000
1.030000
1.030000
1.030000
1.030000
1.030000
1.030000
1.020000
1.060000
1.080000
1.120000
1.110000
1.140000
1.140000
1.140000
1.130000
1.160000
1.160000
1.160000
1.160000
1.160000
1.160000
1.160000
1.150000
1.140000
1.140000
1.130000
1.130000
1.110000
1.120000
1.110000
1.110000
1.110000
1.100000
1.100000
1.100000
1.100000
1.110000
1.110000
1.100000
1.100000
1.100000
1.100000
1.090000
1.100000
1.100000
1.090000
1.090000
1.090000
1.080000
1.090000
1.090000
1.090000
1.070000
1.060000
1.120000
1.110000
1.140000
1.150000
1.150000
1.150000
1.150000
1.140000
1.170000
1.180000
1.170000
1.160000
1.160000
1.150000
1.140000
1.170000
1.170000
1.160000
1.160000
1.170000
1.210000
1.210000
1.200000
1.200000
1.200000
1.200000
1.210000
1.210000
1.210000
1.200000
1.190000
1.190000
1.190000
1.190000
1.190000
1.180000
1.190000
1.190000
1.180000
1.180000
1.170000
1.160000
1.150000
1.180000
1.220000
1.210000
1.240000
1.240000
1.290000
1.280000
1.280000
1.270000
1.270000
1.290000
1.290000
1.290000
1.290000
1.280000
1.340000
1.330000
1.320000
1.360000
1.350000
1.400000
1.390000
1.400000
1.390000
1.410000
1.420000
1.410000
1.410000
1.390000
1.400000
1.450000
1.470000
1.470000
1.460000
1.450000
1.450000
1.450000
1.440000
1.430000
1.460000
1.450000
1.470000
1.460000
1.460000
1.450000
1.450000
1.450000
1.450000
1.440000
1.440000
1.430000
1.430000
1.420000
1.420000
1.410000
1.460000
1.450000
1.510000
1.500000
1.490000
1.500000
1.490000
1.500000
1.550000
1.550000
1.550000
1.540000
1.570000
1.570000
1.560000
1.560000
1.550000
1.620000
1.660000
1.650000
1.660000
1.650000
1.700000
1.690000
1.690000
1.680000
1.660000
1.650000
1.660000
1.650000
1.660000
1.660000
1.680000
1.670000
1.670000
1.660000
1.710000
1.710000
1.700000
1.710000
1.750000
1.770000
1.790000
1.790000
1.780000
1.790000
1.790000
1.770000
1.810000
1.850000
1.840000
1.840000
1.830000
1.840000
1.890000
1.890000
1.890000
1.880000
1.860000
1.920000
1.910000
1.910000
1.920000
1.940000
1.940000
1.940000
1.920000
1.920000
1.910000
1.910000
1.900000
1.910000
1.900000
1.910000
1.920000
1.920000
1.910000
1.890000
1.890000
1.880000
1.920000
1.950000
1.940000
1.960000
1.980000
2.020000
2.020000
2.010000
2.000000
1.990000
2.010000
2.020000
2.010000
2.030000
2.020000
2.050000
2.040000
2.050000
2.040000
2.060000
2.060000
2.110000
2.110000
2.100000
2.130000
2.140000
2.180000
2.180000
2.170000
2.170000
2.210000
2.200000
2.220000
2.220000
2.240000
2.230000
2.220000
2.240000
2.230000
2.220000
2.220000
2.210000
2.200000
2.230000
2.260000
2.250000
2.240000
2.290000
2.280000
2.270000
2.260000
2.280000
2.290000
2.280000
2.270000
2.290000
2.330000
2.330000
2.350000
2.340000
2.360000
2.400000
2.430000
2.420000
2.410000
2.400000
2.390000
2.400000
2.420000
2.420000
2.410000
2.460000
2.450000
2.490000
2.480000
2.470000
2.470000
2.500000
2.490000
2.480000
2.480000
2.470000
2.460000
2.450000
2.460000
2.450000
2.460000
2.490000
2.550000
2.570000
2.560000
2.550000
2.540000
2.570000
2.620000
2.650000
2.640000
2.650000
2.640000
2.630000
2.620000
2.650000
2.650000
2.640000
2.700000
2.710000
2.740000
2.750000
2.740000
2.730000
2.720000
2.730000
2.720000
2.750000
2.750000
2.740000
2.730000
2.770000
2.800000
2.840000
2.850000
2.870000
2.910000
2.930000
2.920000
2.960000
2.970000
2.960000
2.950000
2.950000
3.000000
2.990000
2.990000
3.020000
3.070000
3.060000
3.060000
3.090000
3.130000
3.150000
3.140000
3.140000
3.130000
3.120000
3.110000
3.090000
3.080000
3.070000
3.130000
3.160000
3.150000
3.140000
3.140000
3.160000
3.180000
3.210000
3.230000
3.240000
3.230000
3.220000
3.210000
3.200000
3.230000
3.260000
3.290000
3.280000
3.280000
3.270000
3.310000
3.300000
3.360000
3.350000
3.390000
3.430000
3.530000
3.530000
3.530000
3.550000
3.540000
3.540000
3.540000
3.530000
3.520000
3.550000
3.560000
3.550000
3.570000
3.570000
3.590000
3.580000
3.600000
3.580000
3.570000
3.560000
3.550000
3.540000
3.530000
3.530000
3.520000
3.550000
3.540000
3.520000
3.580000
3.610000
3.600000
3.590000
3.580000
3.570000
3.560000
3.630000
3.620000
3.610000
3.600000
3.610000
3.610000
3.630000
3.630000
3.620000
3.600000
3.610000
3.600000
3.610000
3.600000
3.590000
3.620000
3.650000
3.640000
3.640000
3.670000
3.690000
3.680000
3.670000
3.670000
3.670000
3.700000
3.690000
3.730000
3.720000
3.710000
3.750000
3.740000
3.720000
3.720000
3.760000
3.740000
3.730000
3.720000
3.710000
3.690000
3.670000
3.660000
3.650000
3.640000
3.670000
3.660000
3.650000
3.700000
3.690000
3.680000
3.730000
3.740000
3.740000
3.730000
3.720000
3.740000
3.790000
3.780000
3.770000
3.770000
3.810000
3.820000
3.820000
3.810000
3.800000
3.790000
3.780000
3.770000
3.770000
3.760000
3.750000
3.760000
3.750000
3.740000
3.730000
3.780000
3.770000
3.750000
3.740000
3.720000
3.750000
3.740000
3.720000
3.750000
3.740000
3.730000
3.760000
3.790000
3.780000
3.770000
3.760000
3.750000
3.830000
3.870000
3.870000
3.850000
3.840000
3.820000
3.850000
3.850000
3.850000
3.890000
3.880000
3.910000
3.900000
3.890000
3.880000
3.870000
3.860000
3.900000
3.920000
3.900000
3.890000
3.880000
3.910000
3.900000
3.940000
4.000000
4.050000
4.040000
4.050000
4.040000
4.030000
4.040000
4.030000
4.020000
4.010000
4.040000
4.020000
4.070000
4.050000
4.070000
4.070000
4.070000
4.080000
4.070000
4.070000
4.080000
4.080000
4.100000
4.090000
4.130000
4.140000
4.180000
4.170000
4.160000
4.150000
4.140000
4.190000
4.180000
4.170000
4.160000
4.150000
4.170000
4.200000
4.190000
4.170000
4.150000
4.140000
4.140000
4.160000
4.150000
4.150000
4.220000
4.210000
4.200000
4.190000
4.170000
4.200000
4.220000
4.210000
4.200000
4.210000
4.210000
4.200000
4.190000
4.180000
4.210000
4.200000
4.190000
4.210000
4.200000
4.240000
4.220000
4.220000
4.260000
4.250000
4.240000
4.230000
4.220000
4.230000
4.220000
4.240000
4.230000
4.240000
4.240000
4.270000
4.280000
4.270000
4.260000
4.270000
4.260000
4.250000
4.240000
4.240000
4.230000
4.220000
4.210000
4.190000
4.190000
4.180000
4.170000
4.170000
4.160000
4.140000
4.130000
4.120000
4.100000
4.130000
4.120000
4.150000
4.140000
4.130000
4.120000
4.120000
4.110000
4.130000
4.120000
4.140000
4.160000
4.230000
4.220000
4.220000
4.210000
4.190000
4.200000
4.200000
4.180000
4.180000
4.170000
4.160000
4.170000
4.160000
4.200000
4.190000
4.210000
4.200000
4.200000
4.240000
4.220000
4.260000
4.260000
4.250000
4.250000
4.230000
4.230000
4.230000
4.220000
4.200000
4.190000
4.190000
4.240000
4.230000
4.220000
4.210000
4.200000
4.220000
4.240000
4.230000
4.220000
4.250000
4.240000
4.260000
4.250000
4.250000
4.270000
4.300000
4.320000
4.310000
4.300000
4.280000
4.270000
4.260000
4.280000
4.310000
4.340000
4.330000
4.320000
4.320000
4.350000
4.340000
4.330000
4.320000
4.310000
4.300000
4.280000
4.270000
4.270000
4.250000
4.280000
4.280000
4.270000
4.260000
4.250000
4.240000
4.230000
4.220000
4.250000
4.310000
4.330000
4.320000
4.340000
4.320000
4.310000
4.300000
4.320000
4.340000
4.350000
4.340000
4.320000
4.310000
4.300000
4.300000
4.290000
4.300000
4.310000
4.300000
4.290000
4.280000
4.270000
4.250000
4.230000
4.220000
4.210000
4.200000
4.190000
4.210000
4.200000
4.190000
4.170000
4.160000
4.150000
4.140000
4.120000
4.160000
4.150000
4.140000
4.130000
4.120000
4.160000
4.150000
4.150000
4.140000
4.130000
4.120000
4.140000
4.130000
4.120000
4.110000
4.090000
4.120000
4.130000
4.120000
4.110000
4.100000
4.090000
4.090000
4.080000
4.080000
4.080000
4.070000
4.060000
4.070000
4.110000
4.100000
4.090000
4.100000
4.140000
4.130000
4.160000
4.160000
4.150000
4.130000
4.120000
4.160000
4.150000
4.140000
4.150000
4.170000
4.150000
4.160000
4.150000
4.180000
4.170000
4.160000
4.150000
4.140000
4.170000
4.200000
4.200000
4.190000
4.180000
4.210000
4.190000
4.210000
4.210000
4.250000
4.290000
4.280000
4.310000
4.310000
4.300000
4.290000
4.310000
4.300000
4.300000
4.280000
4.290000
4.320000
4.310000
4.360000
4.350000
4.340000
4.330000
4.360000
4.350000
4.350000
4.370000
4.350000
4.330000
4.320000
4.300000
4.280000
4.270000
4.260000
4.240000
4.240000
4.220000
4.240000
4.230000
4.220000
4.210000
4.200000
4.190000
4.180000
4.200000
4.190000
4.200000
4.210000
4.220000
4.230000
4.210000
4.200000
4.200000
4.210000
4.200000
4.210000
4.250000
4.250000
4.240000
4.240000
4.250000
4.260000
4.250000
4.240000
4.230000
4.220000
4.240000
4.240000
4.230000
4.240000
4.300000
4.310000
4.350000
4.380000
4.390000
4.380000
4.400000
4.400000
4.390000
4.390000
4.380000
4.360000
4.340000
4.330000
4.310000
4.300000
4.290000
4.280000
4.300000
4.280000
4.290000
4.280000
4.290000
4.270000
4.260000
4.250000
4.240000
4.230000
4.280000
4.270000
4.250000
4.270000
4.290000
4.270000
4.250000
4.240000
4.230000
4.220000
4.240000
4.230000
4.210000
4.190000
4.180000
4.200000
4.220000
4.210000
4.200000
4.180000
4.180000
4.170000
4.160000
4.150000
4.140000
4.130000
4.120000
4.110000
4.170000
4.160000
4.150000
4.130000
4.110000
4.100000
4.090000
4.140000
4.130000
4.130000
4.130000
4.120000
4.110000
4.130000
4.140000
4.130000
4.120000
4.120000
4.110000
4.140000
4.140000
4.150000
4.140000
4.190000
4.220000
4.240000
4.240000
4.230000
4.220000
4.230000
4.220000
4.220000
4.210000
4.200000
4.190000
4.180000
4.170000
4.210000
4.200000
4.190000
4.220000
4.260000
4.240000
4.230000
4.260000
4.290000
4.280000
4.270000
4.290000
4.280000
4.270000
4.290000
4.300000
4.280000
4.260000
4.250000
4.230000
4.220000
4.210000
4.260000
4.290000
4.280000
4.280000
4.300000
4.290000
4.320000
4.310000
4.370000
4.360000
4.370000
4.360000
4.350000
4.340000
4.330000
4.320000
4.310000
4.330000
4.350000
4.330000
4.390000
4.420000
4.400000
4.420000
4.410000
4.390000
4.380000
4.370000
4.360000
4.360000
4.370000
4.360000
4.350000
4.380000
4.370000
4.360000
4.350000
4.340000
4.330000
4.310000
4.350000
4.350000
4.340000
4.330000
4.350000
4.360000
4.350000
4.340000
4.320000
4.340000
4.320000
4.310000
4.300000
4.310000
4.330000
4.320000
4.370000
4.350000
4.350000
4.370000
4.360000
4.360000
4.400000
4.400000
4.410000
4.390000
4.380000
4.360000
4.380000
4.370000
4.360000
4.420000
4.430000
4.430000
4.420000
4.410000
4.390000
4.380000
4.430000
4.440000
4.430000
4.440000
4.430000
4.410000
4.420000
4.410000
4.400000
4.390000
4.430000
4.420000
4.410000
4.400000
4.390000
4.370000
4.350000
4.330000
4.310000
4.330000
4.320000
4.350000
4.340000
4.330000
4.320000
4.340000
4.330000
4.320000
4.310000
4.370000
4.360000
4.350000
4.340000
4.340000
4.360000
4.350000
4.340000
4.330000
4.370000
4.350000
4.340000
4.350000
4.380000
4.370000
4.360000
4.350000
4.380000
4.370000
4.370000
4.370000
4.350000
4.390000
4.380000
4.370000
4.360000
4.350000
4.370000
4.390000
4.380000
4.400000
4.410000
4.400000
4.410000
4.390000
4.410000
4.400000
4.380000
4.420000
4.410000
4.400000
4.390000
4.380000
4.370000
4.350000
4.330000
4.360000
4.350000
4.360000
4.390000
4.380000
4.370000
4.360000
4.390000
4.430000
4.460000
4.520000
4.500000
4.490000
4.480000
4.530000
4.520000
4.530000
4.560000
4.570000
4.560000
4.540000
4.530000
4.540000
4.580000
4.570000
4.580000
4.570000
4.590000
4.580000
4.570000
4.560000
4.550000
4.540000
4.580000
4.600000
4.590000
4.590000
4.600000
4.580000
4.590000
4.580000
4.570000
4.560000
4.550000
4.590000
4.630000
4.610000
4.590000
4.580000
4.560000
4.550000
4.580000
4.630000
4.660000
4.660000
4.650000
4.640000
4.650000
4.640000
4.630000
4.620000
4.630000
4.610000
4.630000
4.640000
4.630000
4.610000
4.590000
4.580000
4.600000
4.580000
4.610000
4.600000
4.590000
4.610000
4.590000
4.580000
4.600000
4.580000
4.570000
4.550000
4.530000
4.570000
4.560000
4.550000
4.540000
4.530000
4.520000
4.510000
4.500000
4.510000
4.500000
4.490000
4.500000
4.490000
4.510000
4.530000
4.510000
4.500000
4.530000
4.520000
4.510000
4.540000
4.550000
4.570000
4.560000
4.550000
4.550000
4.570000
4.560000
4.570000
4.560000
4.550000
4.550000
4.540000
4.530000
4.540000
4.520000
4.500000
4.490000
4.520000
4.550000
4.540000
4.580000
4.590000
4.580000
4.570000
4.550000
4.540000
4.530000
4.520000
4.550000
4.540000
4.570000
4.560000
4.550000
4.540000
4.570000
4.620000
4.630000
4.650000
4.630000
4.620000
4.610000
4.660000
4.650000
4.630000
4.620000
4.650000
4.640000
4.630000
4.620000
4.610000
4.600000
4.620000
4.610000
4.600000
4.590000
4.580000
4.570000
4.560000
4.570000
4.590000
4.620000
4.600000
4.580000
4.570000
4.600000
4.590000
4.630000
4.640000
4.630000
4.620000
4.610000
4.620000
4.670000
4.670000
4.670000
4.660000
4.680000
4.740000
4.730000
4.720000
4.710000
4.690000
4.720000
4.700000
4.690000
4.680000
4.730000
4.740000
4.770000
4.760000
4.790000
4.810000
4.800000
4.790000
4.800000
4.810000
4.800000
4.780000
4.760000
4.760000
4.790000
4.820000
4.850000
4.840000
4.830000
4.830000
4.820000
4.860000
4.860000
4.870000
4.850000
4.870000
4.860000
4.890000
4.880000
4.870000
4.880000
4.870000
4.930000
4.910000
4.890000
4.890000
4.870000
4.850000
4.840000
4.890000
4.880000
4.870000
4.910000
4.890000
4.880000
4.860000
4.900000
4.890000
4.910000
4.900000
4.900000
4.880000
4.870000
4.860000
4.850000
4.840000
4.860000
4.840000
4.850000
4.840000
4.830000
4.830000
4.840000
4.850000
4.860000
4.850000
4.840000
4.840000
4.830000
4.810000
4.810000
4.830000
4.820000
4.830000
4.850000
4.840000
4.820000
4.810000
4.840000
4.830000
4.860000
4.840000
4.820000
4.810000
4.820000
4.810000
4.810000
4.800000
4.780000
4.770000
4.810000
4.810000
4.800000
4.820000
4.800000
4.790000
4.800000
4.800000
4.790000
4.780000
4.770000
4.760000
4.750000
4.740000
4.730000
4.760000
4.770000
4.760000
4.750000
4.740000
4.730000
4.760000
4.750000
4.760000
4.790000
4.780000
4.800000
4.790000
4.770000
4.830000
4.820000
4.820000
4.810000
4.830000
4.820000
4.810000
4.800000
4.790000
4.790000
4.800000
4.800000
4.800000
4.790000
4.800000
4.820000
4.810000
4.800000
4.780000
4.770000
4.760000
4.750000
4.740000
4.720000
4.710000
4.700000
4.730000
4.720000
4.750000
4.750000
4.740000
4.760000
4.750000
4.780000
4.760000
4.740000
4.730000
4.750000
4.750000
4.760000
4.760000
4.750000
4.770000
4.760000
4.750000
4.740000
4.730000
4.710000
4.700000
4.700000
4.690000
4.700000
4.730000
4.720000
4.710000
4.710000
4.700000
4.680000
4.690000
4.680000
4.700000
4.690000
4.680000
4.660000
4.690000
4.680000
4.660000
4.640000
4.630000
4.620000
4.630000
4.650000
4.660000
4.660000
4.650000
4.640000
4.620000
4.610000
4.590000
4.590000
4.610000
4.630000
4.620000
4.600000
4.620000
4.610000
4.640000
4.630000
4.630000
4.610000
4.630000
4.650000
4.640000
4.630000
4.610000
4.590000
4.570000
4.550000
4.540000
4.530000
4.520000
4.510000
4.490000
4.480000
4.470000
4.490000
4.500000
4.490000
4.480000
4.470000
4.460000
4.490000
4.500000
4.510000
4.510000
4.500000
4.520000
4.510000
4.520000
4.510000
4.500000
4.480000
4.470000
4.460000
4.440000
4.440000
4.430000
4.460000
4.440000
4.430000
4.420000
4.410000
4.400000
4.400000
4.380000
4.370000
4.350000
4.330000
4.320000
4.310000
4.330000
4.320000
4.340000
4.330000
4.320000
4.340000
4.330000
4.320000
4.310000
4.350000
4.350000
4.400000
4.400000
4.390000
4.380000
4.370000
4.360000
4.350000
4.380000
4.360000
4.350000
4.380000
4.370000
4.400000
4.420000
4.410000
4.440000
4.430000
4.420000
4.430000
4.420000
4.410000
4.400000
4.390000
4.400000
4.440000
4.430000
4.430000
4.420000
4.410000
4.400000
4.380000
4.370000
4.350000
4.340000
4.400000
4.470000
4.450000
4.440000
4.440000
4.430000
4.450000
4.450000
4.460000
4.450000
4.440000
4.430000
4.420000
4.410000
4.400000
4.410000
4.420000
4.420000
4.410000
4.400000
4.410000
4.400000
4.390000
4.400000
4.380000
4.360000
4.420000
4.410000
4.400000
4.430000
4.440000
4.420000
4.440000
4.450000
4.440000
4.450000
4.430000
4.470000
4.460000
4.450000
4.450000
4.500000
4.490000
4.480000
4.490000
4.500000
4.530000
4.520000
4.510000
4.500000
4.490000
4.510000
4.580000
4.570000
4.550000
4.540000
4.530000
4.530000
4.510000
4.530000
4.530000
4.520000
4.510000
4.500000
4.490000
4.530000
4.510000
4.500000
4.510000
4.500000
4.510000
4.520000
4.510000
4.540000
4.530000
4.520000
4.510000
4.500000
4.490000
4.470000
4.470000
4.490000
4.480000
4.500000
4.520000
4.550000
4.530000
4.520000
4.550000
4.540000
4.530000
4.560000
4.570000
4.580000
4.570000
4.620000
4.600000
4.590000
4.580000
4.570000
4.550000
4.580000
4.590000
4.630000
4.610000
4.590000
4.610000
4.610000
4.600000
4.580000
4.570000
4.600000
4.610000
4.610000
4.590000
4.580000
4.580000
4.570000
4.580000
4.570000
4.600000
4.620000
4.640000
4.630000
4.620000
4.610000
4.600000
4.590000
4.570000
4.570000
4.550000
4.540000
4.570000
4.560000
4.550000
4.570000
4.560000
4.570000
4.560000
4.560000
4.550000
4.550000
4.540000
4.530000
4.520000
4.510000
4.500000
4.510000
4.500000
4.530000
4.520000
4.550000
4.530000
4.540000
4.540000
4.530000
4.560000
4.550000
4.540000
4.590000
4.580000
4.570000
4.610000
4.600000
4.610000
4.600000
4.610000
4.600000
4.600000
4.610000
4.640000
4.630000
4.620000
4.610000
4.600000
4.610000
4.600000
4.620000
4.640000
4.630000
4.620000
4.640000
4.630000
4.620000
4.600000
4.630000
4.620000
4.630000
4.620000
4.620000
4.660000
4.670000
4.660000
4.680000
4.680000
4.670000
4.650000
4.680000
4.680000
4.670000
4.660000
4.650000
4.640000
4.650000
4.630000
4.610000
4.680000
4.670000
4.660000
4.640000
4.630000
4.620000
4.610000
4.600000
4.590000
4.580000
4.620000
4.660000
4.660000
4.660000
4.640000
4.690000
4.670000
4.660000
4.640000
4.670000
4.660000
4.650000
4.650000
4.630000
4.610000
4.600000
4.650000
4.630000
4.650000
4.640000
4.630000
4.620000
4.630000
4.640000
4.630000
4.650000
4.640000
4.650000
4.710000
4.690000
4.680000
4.710000
4.700000
4.690000
4.680000
4.660000
4.640000
4.680000
4.660000
4.690000
4.670000
4.680000
4.660000
4.650000
4.650000
4.640000
4.630000
4.620000
4.610000
4.600000
4.580000
4.570000
4.590000
4.630000
4.620000
4.620000
4.640000
4.650000
4.630000
4.620000
4.610000
4.640000
4.680000
4.710000
4.730000
4.720000
4.750000
4.740000
4.730000
4.720000
4.750000
4.780000
4.760000
4.770000
4.760000
4.740000
4.720000
4.710000
4.710000
4.690000
4.670000
4.660000
4.650000
4.640000
4.640000
4.630000
4.670000
4.660000
4.670000
4.700000
4.690000
4.680000
4.670000
4.660000
4.660000
4.690000
4.690000
4.680000
4.670000
4.660000
4.660000
4.650000
4.650000
4.640000
4.620000
4.620000
4.610000
4.620000
4.610000
4.630000
4.650000
4.640000
4.630000
4.620000
4.610000
4.650000
4.640000
4.630000
4.610000
4.600000
4.580000
4.630000
4.610000
4.590000
4.580000
4.590000
4.580000
4.600000
4.580000
4.570000
4.550000
4.560000
4.550000
4.540000
4.570000
4.570000
4.560000
4.570000
4.560000
4.570000
4.580000
4.570000
4.610000
4.590000
4.610000
4.610000
4.610000
4.650000
4.630000
4.620000
4.640000
4.630000
4.620000
4.630000
4.620000
4.610000
4.650000
4.690000
4.680000
4.670000
4.670000
4.660000
4.650000
4.650000
4.640000
4.630000
4.680000
4.710000
4.760000
4.760000
4.810000
4.800000
4.790000
4.780000
4.760000
4.750000
4.730000
4.720000
4.720000
4.710000
4.730000
4.780000
4.770000
4.760000
4.820000
4.800000
4.790000
4.790000
4.770000
4.780000
4.770000
4.770000
4.760000
4.760000
4.750000
4.740000
4.740000
4.720000
4.740000
4.720000
4.710000
4.720000
4.750000
4.730000
4.720000
4.710000
4.720000
4.720000
4.700000
4.720000
4.710000
4.700000
4.730000
4.710000
4.700000
4.700000
4.680000
4.660000
4.660000
4.640000
4.630000
4.620000
4.610000
4.590000
4.580000
4.560000
4.550000
4.560000
4.550000
4.540000
4.570000
4.560000
4.570000
4.570000
4.600000
4.640000
4.660000
4.640000
4.630000
4.620000
4.610000
4.590000
4.580000
4.600000
4.590000
4.590000
4.580000
4.580000
4.580000
4.600000
4.590000
4.570000
4.560000
4.540000
4.530000
4.540000
4.530000
4.520000
4.510000
4.500000
4.550000
4.590000
4.580000
4.590000
4.580000
4.600000
4.590000
4.580000
4.580000
4.580000
4.570000
4.560000
4.550000
4.580000
4.570000
4.560000
4.540000
4.560000
4.550000
4.540000
4.520000
4.510000
4.530000
4.530000
4.510000
4.490000
4.510000
4.500000
4.510000
4.500000
4.490000
4.480000
4.470000
4.450000
4.470000
4.460000
4.450000
4.440000
4.420000
4.410000
4.400000
4.380000
4.430000
4.450000
4.470000
4.500000
4.510000
4.500000
4.480000
4.470000
4.460000
4.480000
4.460000
4.480000
4.490000
4.470000
4.460000
4.450000
4.490000
4.500000
4.490000
4.500000
4.510000
4.510000
4.500000
4.490000
4.480000
4.510000
4.490000
4.480000
4.490000
4.510000
4.510000
4.500000
4.490000
4.490000
4.500000
4.490000
4.470000
4.460000
4.480000
4.520000
4.550000
4.590000
4.610000
4.680000
4.670000
4.650000
4.630000
4.620000
4.610000
4.600000
4.640000
4.660000
4.680000
4.670000
4.710000
4.720000
4.710000
4.700000
4.670000
4.660000
4.660000
4.670000
4.680000
4.670000
4.660000
4.680000
4.690000
4.680000
4.670000
4.690000
4.680000
4.670000
4.660000
4.670000
4.670000
4.670000
4.660000
4.650000
4.640000
4.660000
4.640000
4.620000
4.660000
4.650000
4.660000
4.640000
4.620000
4.680000
4.680000
4.660000
4.650000
4.660000
4.670000
4.690000
4.690000
4.680000
4.660000
4.680000
4.700000
4.680000
4.700000
4.690000
4.730000
4.730000
4.710000
4.700000
4.720000
4.740000
4.730000
4.720000
4.710000
4.710000
4.690000
4.690000
4.680000
4.670000
4.660000
4.710000
4.710000
4.700000
4.720000
4.710000
4.730000
4.720000
4.720000
4.760000
4.750000
4.740000
4.730000
4.720000
4.760000
4.760000
4.780000
4.780000
4.770000
4.760000
4.750000
4.730000
4.710000
4.750000
4.780000
4.790000
4.790000
4.810000
4.800000
4.790000
4.770000
4.800000
4.790000
4.780000
4.770000
4.760000
4.750000
4.790000
4.780000
4.790000
4.790000
4.830000
4.820000
4.820000
4.810000
4.810000
4.790000
4.820000
4.810000
4.790000
4.770000
4.790000
4.800000
4.790000
4.780000
4.820000
4.850000
4.840000
4.860000
4.880000
4.870000
4.850000
4.840000
4.830000
4.820000
4.850000
4.840000
4.830000
4.820000
4.820000
4.850000
4.830000
4.820000
4.810000
4.800000
4.820000
4.810000
4.830000
4.850000
4.880000
4.870000
4.850000
4.840000
4.830000
4.860000
4.870000
4.860000
4.850000
4.850000
4.840000
4.840000
4.850000
4.850000
4.850000
4.850000
4.840000
4.850000
4.860000
4.850000
4.830000
4.820000
4.810000
4.810000
4.790000
4.780000
4.780000
4.800000
4.810000
4.800000
4.810000
4.800000
4.790000
4.780000
4.790000
4.820000
4.810000
4.810000
4.800000
4.860000
4.850000
4.830000
4.820000
4.830000
4.810000
4.830000
4.840000
4.820000
4.800000
4.790000
4.790000
4.800000
4.790000
4.780000
4.770000
4.760000
4.770000
4.760000
4.770000
4.770000
4.750000
4.780000
4.770000
4.800000
4.830000
4.840000
4.860000
4.850000
4.840000
4.860000
4.850000
4.840000
4.830000
4.860000
4.850000
4.840000
4.830000
4.830000
4.850000
4.850000
4.850000
4.860000
4.850000
4.840000
4.830000
4.820000
4.810000
4.820000
4.810000
4.790000
4.780000
4.770000
4.780000
4.830000
4.820000
4.810000
4.800000
4.790000
4.780000
4.780000
4.770000
4.750000
4.760000
4.740000
4.760000
4.750000
4.820000
4.840000
4.820000
4.810000
4.800000
4.850000
4.840000
4.860000
4.890000
4.900000
4.890000
4.880000
4.880000
4.870000
4.890000
4.910000
4.900000
4.890000
4.870000
4.860000
4.870000
4.860000
4.840000
4.830000
4.860000
4.900000
4.880000
4.860000
4.840000
4.840000
4.830000
4.850000
4.860000
4.840000
4.830000
4.820000
4.830000
4.810000
4.820000
4.810000
4.800000
4.790000
4.770000
4.780000
4.770000
4.760000
4.810000
4.800000
4.780000
4.780000
4.770000
4.750000
4.770000
4.760000
4.770000
4.750000
4.730000
4.710000
4.700000
4.710000
4.750000
4.740000
4.750000
4.740000
4.730000
4.740000
4.750000
4.730000
4.750000
4.740000
4.720000
4.750000
4.740000
4.730000
4.750000
4.730000
4.740000
4.780000
4.770000
4.790000
4.780000
4.800000
4.780000
4.800000
4.790000
4.780000
4.760000
4.780000
4.810000
4.860000
4.900000
4.900000
4.910000
4.900000
4.900000
4.900000
4.920000
4.930000
4.920000
4.910000
4.940000
4.920000
4.910000
4.940000
4.930000
4.930000
4.940000
4.920000
4.940000
4.950000
4.940000
4.920000
4.900000
4.890000
4.900000
4.890000
4.900000
4.880000
4.870000
4.860000
4.860000
4.850000
4.870000
4.890000
4.880000
4.890000
4.880000
4.870000
4.860000
4.850000
4.840000
4.830000
4.850000
4.860000
4.880000
4.860000
4.870000
4.860000
4.840000
4.840000
4.830000
4.830000
4.860000
4.860000
4.860000
4.880000
4.860000
4.870000
4.890000
4.880000
4.880000
4.880000
4.870000
4.860000
4.870000
4.880000
4.870000
4.850000
4.860000
4.840000
4.830000
4.820000
4.820000
4.830000
4.840000
4.830000
4.840000
4.830000
4.820000
4.810000
4.800000
4.800000
4.820000
4.810000
4.800000
4.780000
4.770000
4.770000
4.760000
4.750000
4.740000
4.760000
4.770000
4.770000
4.760000
4.750000
4.740000
4.730000
4.730000
4.730000
4.710000
4.700000
4.690000
4.740000
4.730000
4.720000
4.700000
4.740000
4.750000
4.740000
4.730000
4.760000
4.770000
4.760000
4.750000
4.740000
4.750000
4.740000
4.730000
4.720000
4.740000
4.750000
4.740000
4.720000
4.710000
4.750000
4.740000
4.730000
4.740000
4.730000
4.770000
4.760000
4.790000
4.780000
4.770000
4.760000
4.740000
4.730000
4.710000
4.700000
4.700000
4.720000
4.750000
4.740000
4.760000
4.790000
4.770000
4.760000
4.750000
4.740000
4.730000
4.720000
4.720000
4.710000
4.700000
4.730000
4.720000
4.700000
4.710000
4.730000
4.720000
4.730000
4.730000
4.740000
4.770000
4.750000
4.740000
4.760000
4.770000
4.750000
4.730000
4.760000
4.750000
4.740000
4.730000
4.750000
4.780000
4.780000
4.790000
4.780000
4.770000
4.760000
4.750000
4.780000
4.770000
4.760000
4.780000
4.760000
4.750000
4.770000
4.760000
4.770000
4.760000
4.740000
4.770000
4.780000
4.770000
4.780000
4.800000
4.800000
4.820000
4.850000
4.850000
4.830000
4.820000
4.810000
4.810000
4.790000
4.770000
4.790000
4.780000
4.770000
4.760000
4.750000
4.780000
4.760000
4.760000
4.750000
4.800000
4.810000
4.820000
4.810000
4.800000
4.790000
4.780000
4.760000
4.770000
4.760000
4.740000
4.730000
4.770000
4.760000
4.770000
4.750000
4.740000
4.760000
4.760000
4.780000
4.770000
4.770000
4.750000
4.730000
4.710000
4.740000
4.730000
4.720000
4.700000
4.740000
4.730000
4.710000
4.700000
4.690000
4.710000
4.690000
4.680000
4.720000
4.740000
4.730000
4.730000
4.720000
4.700000
4.690000
4.680000
4.670000
RED food
4.700000
4.740000
4.800000
4.830000
4.850000
4.840000
4.840000
4.880000
4.910000
4.890000
4.930000
4.940000
4.960000
4.960000
4.940000
4.940000
4.930000
4.980000
4.960000
4.990000
4.980000
5.000000
4.980000
5.010000
5.050000
5.060000
5.050000
5.060000
5.110000
5.100000
5.120000
5.140000
5.190000
5.200000
5.210000
5.200000
5.230000
5.250000
5.250000
5.280000
5.270000
5.290000
5.280000
5.280000
5.300000
5.300000
5.290000
5.270000
5.290000
5.270000
5.290000
5.270000
5.320000
5.300000
5.290000
5.280000
5.280000
5.270000
5.290000
5.350000
5.390000
5.400000
5.420000
5.410000
5.460000
5.470000
5.490000
5.550000
5.570000
5.590000
5.620000
5.640000
5.630000
5.640000
5.660000
5.650000
5.720000
5.710000
5.700000
5.710000
5.740000
5.730000
5.760000
5.750000
5.800000
5.830000
5.850000
5.870000
5.880000
5.860000
5.890000
5.900000
5.910000
5.900000
5.880000
5.890000
5.870000
5.940000
5.990000
5.980000
6.000000
5.980000
5.960000
6.000000
5.990000
5.970000
5.950000
5.960000
5.990000
5.990000
5.990000
5.970000
5.960000
5.940000
5.960000
6.000000
6.040000
6.030000
6.020000
6.030000
6.030000
6.110000
6.120000
6.180000
6.180000
6.180000
6.210000
6.210000
6.200000
6.230000
6.290000
6.290000
6.270000
6.250000
6.260000
6.250000
6.280000
6.270000
6.250000
6.280000
6.270000
6.290000
6.280000
6.310000
6.340000
6.350000
6.370000
6.340000
6.340000
6.350000
6.360000
6.360000
6.340000
6.370000
6.360000
6.350000
6.350000
6.370000
6.360000
6.370000
6.380000
6.360000
6.350000
6.350000
6.380000
6.390000
6.450000
6.500000
6.530000
6.540000
6.520000
6.540000
6.530000
6.560000
6.560000
6.590000
6.620000
6.620000
6.610000
6.610000
6.610000
6.610000
6.620000
6.620000
6.630000
6.640000
6.650000
6.650000
6.670000
6.650000
6.680000
6.720000
6.740000
6.770000
6.790000
6.780000
6.760000
6.780000
6.770000
6.790000
6.770000
6.800000
6.840000
6.860000
6.870000
6.870000
6.870000
6.860000
6.880000
6.860000
6.880000
6.890000
6.900000
6.950000
6.990000
7.010000
7.070000
7.100000
7.090000
7.100000
7.090000
7.100000
7.090000
7.100000
7.140000
7.130000
7.150000
7.180000
7.200000
7.200000
7.230000
7.220000
7.220000
7.260000
7.290000
7.270000
7.250000
7.240000
7.240000
7.260000
7.260000
7.240000
7.260000
7.240000
7.240000
7.220000
7.210000
7.220000
7.260000
7.290000
7.290000
7.290000
7.270000
7.280000
7.280000
7.300000
7.280000
7.290000
7.270000
7.300000
7.310000
7.290000
7.270000
7.290000
7.310000
7.380000
7.430000
7.410000
7.410000
7.450000
7.430000
7.440000
7.440000
7.440000
7.420000
7.440000
7.480000
7.470000
7.480000
7.480000
7.490000
7.540000
7.530000
7.550000
7.570000
7.580000
7.560000
7.580000
7.600000
7.620000
7.630000
7.610000
7.620000
7.640000
7.630000
7.620000
7.600000
7.580000
7.570000
7.560000
7.560000
7.590000
7.610000
7.590000
7.590000
7.580000
7.560000
7.540000
7.530000
7.540000
7.560000
7.560000
7.560000
7.540000
7.520000
7.540000
7.520000
7.500000
7.510000
7.490000
7.480000
7.480000
7.490000
7.500000
7.480000
7.470000
7.440000
7.450000
7.450000
7.460000
7.460000
7.460000
7.490000
7.530000
7.520000
7.540000
7.520000
7.520000
7.520000
7.530000
7.550000
7.550000
7.530000
7.530000
7.510000
7.510000
7.530000
7.530000
7.530000
7.540000
7.540000
7.550000
7.530000
7.540000
7.520000
7.520000
7.540000
7.520000
7.510000
7.540000
7.540000
7.550000
7.550000
7.570000
7.550000
7.580000
7.630000
7.670000
7.650000
7.670000
7.660000
7.650000
7.640000
7.690000
7.700000
7.680000
7.680000
7.690000
7.720000
7.710000
7.730000
7.710000
7.710000
7.740000
7.750000
7.730000
7.710000
7.700000
7.710000
7.690000
7.700000
7.690000
7.680000
7.660000
7.640000
7.660000
7.690000
7.670000
7.650000
7.690000
7.700000
7.680000
7.730000
7.720000
7.700000
7.710000
7.680000
7.660000
7.680000
7.710000
7.740000
7.770000
7.820000
7.820000
7.800000
7.780000
7.760000
7.820000
7.790000
7.770000
7.760000
7.770000
7.780000
7.820000
7.810000
7.820000
7.840000
7.820000
7.830000
7.860000
7.860000
7.870000
7.870000
7.880000
7.860000
7.880000
7.890000
7.870000
7.850000
7.850000
7.850000
7.860000
7.880000
7.910000
7.900000
7.900000
7.880000
7.890000
7.920000
7.920000
7.920000
7.890000
7.870000
7.890000
7.880000
7.890000
7.910000
7.900000
7.880000
7.860000
7.850000
7.830000
7.890000
7.870000
7.870000
7.860000
7.870000
7.860000
7.840000
7.830000
7.840000
7.820000
7.800000
7.800000
7.820000
7.880000
7.880000
7.890000
7.870000
7.860000
7.860000
7.900000
7.920000
7.910000
7.910000
7.940000
7.980000
7.960000
7.980000
7.980000
7.980000
7.970000
7.950000
7.950000
7.940000
7.980000
8.000000
8.010000
8.050000
8.050000
8.070000
8.080000
8.060000
8.090000
8.100000
8.110000
8.100000
8.090000
8.080000
8.080000
8.070000
8.080000
8.080000
8.100000
8.100000
8.110000
8.100000
8.120000
8.130000
8.150000
8.160000
8.160000
8.140000
8.140000
8.150000
8.160000
8.150000
8.120000
8.100000
8.150000
8.140000
8.150000
8.170000
8.200000
8.200000
8.220000
8.190000
8.180000
8.220000
8.240000
8.290000
8.270000
8.250000
8.250000
8.230000
8.210000
8.220000
8.220000
8.200000
8.180000
8.200000
8.220000
8.210000
8.200000
8.260000
8.250000
8.260000
8.250000
8.270000
8.280000
8.320000
8.300000
8.290000
8.320000
8.310000
8.300000
8.280000
8.300000
8.310000
8.300000
8.310000
8.290000
8.280000
8.270000
8.250000
8.250000
8.270000
8.320000
8.330000
8.330000
8.340000
8.360000
8.390000
8.380000
8.410000
8.380000
8.390000
8.400000
8.380000
8.390000
8.370000
8.360000
8.340000
8.320000
8.310000
8.360000
8.380000
8.420000
8.420000
8.440000
8.420000
8.410000
8.390000
8.370000
8.380000
8.420000
8.430000
8.410000
8.420000
8.410000
8.440000
8.440000
8.440000
8.440000
8.430000
8.420000
8.420000
8.400000
8.400000
8.420000
8.410000
8.390000
8.440000
8.410000
8.410000
8.410000
8.440000
8.440000
8.420000
8.440000
8.420000
8.400000
8.380000
8.360000
8.390000
8.370000
8.360000
8.360000
8.370000
8.350000
8.340000
8.350000
8.330000
8.310000
8.330000
8.330000
8.360000
8.340000
8.330000
8.320000
8.320000
8.300000
8.290000
8.270000
8.290000
8.290000
8.290000
8.270000
8.300000
8.300000
8.280000
8.310000
8.310000
8.330000
8.310000
8.310000
8.290000
8.290000
8.280000
8.270000
8.300000
8.290000
8.310000
8.320000
8.310000
8.320000
8.310000
8.300000
8.300000
8.310000
8.300000
8.280000
8.300000
8.290000
8.300000
8.330000
8.340000
8.340000
8.350000
8.330000
8.310000
8.290000
8.290000
8.300000
8.310000
8.300000
8.330000
8.370000
8.380000
8.390000
8.390000
8.400000
8.410000
8.410000
8.390000
8.390000
8.400000
8.380000
8.400000
8.410000
8.440000
8.420000
8.480000
8.460000
8.490000
8.550000
8.550000
8.530000
8.570000
8.570000
8.560000
8.560000
8.530000
8.560000
8.570000
8.550000
8.530000
8.510000
8.490000
8.470000
8.480000
8.460000
8.470000
8.470000
8.510000
8.520000
8.500000
8.520000
8.560000
8.570000
8.600000
8.580000
8.610000
8.590000
8.610000
8.590000
8.580000
8.570000
8.590000
8.570000
8.560000
8.590000
8.650000
8.660000
8.640000
8.640000
8.640000
8.620000
8.650000
8.630000
8.640000
8.620000
8.610000
8.620000
8.680000
8.660000
8.660000
8.660000
8.680000
8.660000
8.650000
8.660000
8.640000
8.610000
8.590000
8.590000
8.600000
8.610000
8.670000
8.700000
8.690000
8.710000
8.730000
8.710000
8.700000
8.670000
8.660000
8.640000
8.660000
8.650000
8.640000
8.640000
8.630000
8.640000
8.630000
8.610000
8.600000
8.590000
8.600000
8.590000
8.610000
8.590000
8.570000
8.590000
8.590000
8.570000
8.560000
8.540000
8.560000
8.560000
8.590000
8.580000
8.610000
8.610000
8.590000
8.580000
8.560000
8.540000
8.520000
8.520000
8.530000
8.570000
8.620000
8.630000
8.630000
8.640000
8.670000
8.680000
8.660000
8.670000
8.650000
8.660000
8.660000
8.660000
8.640000
8.630000
8.620000
8.610000
8.610000
8.610000
8.630000
8.610000
8.600000
8.640000
8.700000
8.680000
8.650000
8.630000
8.640000
8.620000
8.610000
8.640000
8.650000
8.650000
8.630000
8.610000
8.640000
8.640000
8.650000
8.660000
8.640000
8.650000
8.660000
8.640000
8.620000
8.620000
8.640000
8.650000
8.640000
8.630000
8.620000
8.640000
8.640000
8.680000
8.670000
8.680000
8.660000
8.640000
8.650000
8.630000
8.630000
8.600000
8.610000
8.610000
8.620000
8.630000
8.610000
8.580000
8.560000
8.540000
8.520000
8.500000
8.470000
8.480000
8.460000
8.440000
8.490000
8.520000
8.500000
8.480000
8.460000
8.470000
8.450000
8.430000
8.400000
8.420000
8.440000
8.450000
8.460000
8.500000
8.480000
8.460000
8.490000
8.500000
8.480000
8.470000
8.480000
8.450000
8.440000
8.430000
8.460000
8.450000
8.440000
8.420000
8.450000
8.480000
8.480000
8.470000
8.490000
8.470000
8.490000
8.470000
8.490000
8.480000
8.480000
8.480000
8.500000
8.480000
8.480000
8.500000
8.500000
8.480000
8.460000
8.470000
8.450000
8.450000
8.470000
8.450000
8.470000
8.510000
8.520000
8.540000
8.530000
8.520000
8.570000
8.570000
8.590000
8.580000
8.570000
8.560000
8.530000
8.560000
8.570000
8.550000
8.550000
8.560000
8.550000
8.560000
8.570000
8.590000
8.630000
8.600000
8.570000
8.580000
8.590000
8.620000
8.690000
8.680000
8.700000
8.700000
8.680000
8.670000
8.680000
8.660000
8.670000
8.660000
8.630000
8.610000
8.630000
8.630000
8.630000
8.660000
8.660000
8.650000
8.630000
8.610000
8.630000
8.620000
8.600000
8.620000
8.650000
8.620000
8.600000
8.580000
8.580000
8.590000
8.570000
8.560000
8.540000
8.520000
8.520000
8.530000
8.550000
8.550000
8.590000
8.620000
8.640000
8.650000
8.680000
8.680000
8.710000
8.690000
8.700000
8.670000
8.650000
8.620000
8.600000
8.580000
8.590000
8.590000
8.580000
8.570000
8.540000
8.520000
8.530000
8.520000
8.510000
8.510000
8.540000
8.560000
8.540000
8.560000
8.580000
8.560000
8.600000
8.580000
8.590000
8.590000
8.590000
8.630000
8.600000
8.590000
8.580000
8.560000
8.550000
8.550000
8.620000
8.630000
8.640000
8.620000
8.610000
8.580000
8.590000
8.570000
8.540000
8.520000
8.570000
8.570000
8.550000
8.590000
8.590000
8.590000
8.570000
8.590000
8.590000
8.590000
8.570000
8.560000
8.590000
8.600000
8.620000
8.640000
8.650000
8.640000
8.650000
8.680000
8.660000
8.650000
8.680000
8.740000
8.710000
8.710000
8.760000
8.740000
8.750000
8.740000
8.720000
8.730000
8.730000
8.710000
8.720000
8.710000
8.690000
8.670000
8.670000
8.660000
8.650000
8.630000
8.610000
8.600000
8.610000
8.620000
8.620000
8.620000
8.600000
8.600000
8.580000
8.590000
8.600000
8.570000
8.550000
8.600000
8.570000
8.560000
8.560000
8.570000
8.550000
8.570000
8.550000
8.550000
8.560000
8.580000
8.560000
8.540000
8.520000
8.530000
8.550000
8.520000
8.530000
8.570000
8.550000
8.550000
8.530000
8.550000
8.570000
8.580000
8.560000
8.560000
8.560000
8.590000
8.590000
8.590000
8.570000
8.590000
8.580000
8.580000
8.590000
8.600000
8.580000
8.610000
8.590000
8.570000
8.590000
8.590000
8.580000
8.590000
8.610000
8.590000
8.560000
8.570000
8.550000
8.590000
8.580000
8.640000
8.660000
8.670000
8.650000
8.630000
8.630000
8.650000
8.650000
8.640000
8.660000
8.660000
8.650000
8.670000
8.650000
8.660000
8.640000
8.620000
8.640000
8.610000
8.610000
8.630000
8.620000
8.630000
8.640000
8.650000
8.650000
8.640000
8.700000
8.690000
8.710000
8.690000
8.660000
8.660000
8.660000
8.660000
8.680000
8.660000
8.650000
8.630000
8.610000
8.590000
8.610000
8.640000
8.650000
8.640000
8.620000
8.660000
8.640000
8.660000
8.660000
8.640000
8.620000
8.610000
8.600000
8.590000
8.580000
8.560000
8.600000
8.610000
8.660000
8.640000
8.620000
8.610000
8.610000
8.620000
8.630000
8.630000
8.610000
8.600000
8.590000
8.590000
8.560000
8.540000
8.570000
8.570000
8.550000
8.540000
8.540000
8.520000
8.540000
8.560000
8.550000
8.530000
8.550000
8.530000
8.540000
8.520000
8.500000
8.500000
8.470000
8.460000
8.440000
8.440000
8.420000
8.440000
8.420000
8.430000
8.440000
8.460000
8.470000
8.480000
8.450000
8.430000
8.440000
8.420000
8.400000
8.390000
8.370000
8.350000
8.340000
8.340000
8.340000
8.320000
8.310000
8.330000
8.350000
8.370000
8.350000
8.330000
8.340000
8.360000
8.390000
8.380000
8.380000
8.400000
8.380000
8.360000
8.370000
8.360000
8.340000
8.340000
8.320000
8.330000
8.350000
8.350000
8.330000
8.310000
8.310000
8.360000
8.400000
8.380000
8.390000
8.380000
8.360000
8.340000
8.320000
8.320000
8.350000
8.380000
8.360000
8.380000
8.390000
8.390000
8.390000
8.390000
8.380000
8.360000
8.340000
8.390000
8.380000
8.380000
8.430000
8.440000
8.420000
8.440000
8.460000
8.450000
8.430000
8.450000
8.450000
8.430000
8.400000
8.380000
8.370000
8.350000
8.390000
8.420000
8.470000
8.450000
8.430000
8.400000
8.380000
8.400000
8.400000
8.410000
8.440000
8.420000
8.430000
8.420000
8.440000
8.500000
8.480000
8.460000
8.440000
8.430000
8.440000
8.460000
8.470000
8.460000
8.480000
8.460000
8.450000
8.480000
8.480000
8.490000
8.510000
8.490000
8.480000
8.490000
8.470000
8.450000
8.480000
8.480000
8.460000
8.500000
8.530000
8.530000
8.510000
8.510000
8.480000
8.470000
8.510000
8.490000
8.470000
8.450000
8.490000
8.470000
8.470000
8.510000
8.490000
8.510000
8.490000
8.470000
8.450000
8.460000
8.440000
8.440000
8.420000
8.400000
8.400000
8.430000
8.410000
8.420000
8.450000
8.490000
8.470000
8.450000
8.430000
8.420000
8.470000
8.550000
8.570000
8.540000
8.550000
8.530000
8.550000
8.590000
8.580000
8.600000
8.610000
8.610000
8.600000
8.580000
8.590000
8.620000
8.640000
8.620000
8.600000
8.590000
8.610000
8.620000
8.590000
8.600000
8.580000
8.590000
8.570000
8.550000
8.530000
8.520000
8.510000
8.510000
8.490000
8.500000
8.500000
8.500000
8.490000
8.520000
8.550000
8.530000
8.560000
8.570000
8.550000
8.550000
8.550000
8.530000
8.570000
8.580000
8.580000
8.560000
8.560000
8.750000
8.730000
8.710000
8.690000
8.690000
8.700000
8.690000
8.680000
8.660000
8.650000
8.660000
8.660000
8.650000
8.710000
8.720000
8.700000
8.710000
8.720000
8.760000
8.740000
8.760000
8.740000
8.720000
8.740000
8.750000
8.760000
8.760000
8.780000
8.790000
8.780000
8.780000
8.790000
8.780000
8.780000
8.770000
8.760000
8.780000
8.780000
8.800000
8.780000
8.770000
8.760000
8.750000
8.760000
8.760000
8.750000
8.740000
8.720000
8.710000
8.740000
8.740000
8.750000
8.740000
8.750000
8.720000
8.800000
8.820000
8.840000
8.860000
8.840000
8.840000
8.830000
8.820000
8.840000
8.820000
8.830000
8.850000
8.830000
8.810000
8.830000
8.810000
8.830000
8.820000
8.830000
8.860000
8.830000
8.800000
8.770000
8.800000
8.780000
8.790000
8.820000
8.810000
8.830000
8.810000
8.790000
8.770000
8.780000
8.780000
8.780000
8.800000
8.780000
8.780000
8.790000
8.800000
8.850000
8.820000
8.840000
8.870000
8.840000
8.910000
8.920000
8.970000
8.950000
9.020000
9.030000
9.030000
9.010000
9.030000
9.090000
9.080000
9.070000
9.090000
9.080000
9.060000
9.070000
9.060000
9.040000
9.070000
9.060000
9.090000
9.070000
9.090000
9.100000
9.080000
9.130000
9.110000
9.220000
9.200000
9.200000
9.190000
9.170000
9.190000
9.180000
9.180000
9.190000
9.210000
9.190000
9.250000
9.240000
9.260000
9.260000
9.250000
9.230000
9.220000
9.200000
9.200000
9.180000
9.180000
9.180000
9.160000
9.170000
9.170000
9.160000
9.140000
9.120000
9.240000
9.250000
9.270000
9.330000
9.320000
9.300000
9.320000
9.320000
9.300000
9.320000
9.310000
9.310000
9.320000
9.300000
9.280000
9.280000
9.260000
9.250000
9.280000
9.280000
9.330000
9.330000
9.310000
9.320000
9.430000
9.460000
9.450000
9.420000
9.420000
9.430000
9.430000
9.450000
9.450000
9.420000
9.440000
9.440000
9.420000
9.400000
9.420000
9.410000
9.430000
9.440000
9.490000
9.470000
9.460000
9.500000
9.560000
9.550000
9.550000
9.570000
9.550000
9.530000
9.510000
9.500000
9.490000
9.500000
9.520000
9.530000
9.520000
9.520000
9.500000
9.530000
9.540000
9.520000
9.480000
9.600000
9.570000
9.570000
9.550000
9.570000
9.530000
9.560000
9.530000
9.500000
9.480000
9.500000
9.510000
9.540000
9.560000
9.550000
9.570000
9.570000
9.560000
9.580000
9.570000
9.570000
9.550000
9.520000
9.500000
9.490000
9.490000
9.470000
9.470000
9.440000
9.500000
9.630000
9.650000
9.660000
9.680000
9.710000
9.720000
9.780000
9.760000
9.740000
9.760000
9.810000
9.780000
9.900000
9.880000
10.010000
10.190000
10.170000
10.190000
10.170000
10.160000
10.170000
10.170000
10.150000
10.140000
10.270000
10.260000
10.260000
10.260000
10.280000
10.380000
10.400000
10.380000
10.360000
10.370000
10.380000
10.390000
10.420000
10.450000
10.510000
10.580000
10.580000
10.590000
10.560000
10.540000
10.540000
10.490000
10.580000
10.560000
10.520000
10.670000
10.670000
10.650000
10.630000
10.610000
10.600000
10.630000
10.620000
10.600000
10.600000
10.590000
10.610000
10.620000
10.590000
10.560000
10.610000
10.580000
10.560000
10.550000
10.550000
10.540000
10.560000
10.540000
10.510000
10.690000
10.670000
10.650000
10.680000
10.680000
10.780000
10.820000
10.810000
10.840000
10.820000
10.930000
10.910000
10.990000
10.940000
11.100000
11.120000
11.070000
11.160000
11.140000
11.130000
11.120000
11.130000
11.170000
11.150000
11.150000
11.130000
11.110000
11.090000
11.090000
11.100000
11.200000
11.230000
11.250000
11.220000
11.280000
11.260000
11.240000
11.240000
11.210000
11.180000
11.230000
11.190000
11.300000
11.310000
11.350000
11.380000
11.360000
11.380000
11.530000
11.530000
11.540000
11.550000
11.550000
11.600000
11.650000
11.660000
11.640000
11.610000
11.590000
11.610000
11.630000
11.740000
11.790000
11.920000
11.970000
11.950000
11.920000
12.070000
12.110000
12.270000
12.240000
12.350000
12.490000
12.470000
12.440000
12.400000
12.460000
12.610000
12.660000
12.750000
12.740000
12.740000
12.880000
12.920000
13.000000
13.090000
13.090000
13.090000
13.030000
13.090000
13.060000
13.030000
13.130000
13.150000
13.160000
13.150000
13.130000
13.190000
13.280000
13.360000
13.330000
13.500000
13.480000
13.590000
13.580000
13.580000
13.560000
13.580000
13.600000
13.560000
13.560000
13.620000
13.650000
13.620000
13.640000
13.620000
13.600000
13.580000
13.560000
13.670000
13.670000
13.640000
13.710000
13.720000
13.710000
13.830000
13.820000
13.940000
13.910000
13.890000
13.960000
14.070000
14.190000
14.310000
14.300000
14.260000
14.310000
14.380000
14.490000
14.570000
14.600000
14.570000
14.560000
14.640000
14.700000
14.830000
14.930000
14.990000
14.950000
15.070000
15.130000
15.140000
15.220000
15.300000
15.360000
15.390000
15.370000
15.440000
15.440000
15.440000
15.520000
15.530000
15.510000
15.480000
15.500000
15.480000
15.560000
15.710000
15.690000
15.670000
15.780000
15.870000
15.950000
16.020000
16.090000
16.140000
16.240000
16.220000
16.390000
16.440000
16.400000
16.470000
16.560000
16.600000
16.550000
16.640000
16.810000
16.790000
16.910000
17.020000
17.070000
17.140000
17.190000
17.280000
17.380000
17.400000
17.480000
17.470000
17.590000
17.640000
17.600000
17.650000
17.700000
17.750000
17.850000
17.910000
17.940000
18.010000
18.110000
18.110000
18.090000
18.190000
18.280000
18.250000
18.240000
18.220000
18.310000
18.400000
18.520000
18.620000
18.580000
18.550000
18.600000
18.590000
18.590000
18.630000
18.590000
18.710000
18.660000
18.700000
18.730000
18.770000
18.900000
18.970000
19.080000
19.200000
19.150000
19.140000
19.080000
19.090000
19.130000
19.170000
19.130000
19.160000
19.210000
19.210000
19.280000
19.270000
19.340000
19.390000
19.410000
19.480000
19.520000
19.540000
19.540000
19.550000
19.620000
19.650000
19.670000
19.630000
19.580000
19.590000
19.560000
19.520000
19.480000
19.470000
19.430000
19.390000
19.360000
19.320000
19.300000
19.260000
19.260000
19.280000
19.340000
19.390000
19.410000
19.420000
19.470000
19.500000
19.570000
19.600000
19.610000
19.570000
19.580000
19.570000
19.590000
19.540000
19.640000
19.710000
19.680000
19.740000
19.700000
19.720000
19.730000
19.810000
19.830000
19.790000
19.820000
19.850000
19.790000
19.860000
19.930000
19.970000
19.940000
19.950000
19.940000
20.020000
20.180000
20.140000
20.100000
20.140000
20.140000
20.170000
20.150000
20.110000
20.140000
20.210000
20.170000
20.110000
20.230000
20.180000
20.130000
20.170000
20.170000
20.200000
20.220000
20.180000
20.210000
20.220000
20.280000
20.240000
20.320000
20.270000
20.310000
20.320000
20.370000
20.400000
20.490000
20.440000
20.400000
20.430000
20.390000
20.430000
20.470000
20.540000
20.500000
20.600000
20.560000
20.570000
20.620000
20.680000
20.730000
20.770000
20.810000
20.770000
20.840000
20.830000
20.870000
20.820000
20.820000
20.800000
20.810000
20.830000
20.850000
20.900000
20.930000
20.950000
20.930000
20.960000
20.940000
21.000000
21.050000
21.080000
21.090000
21.050000
21.120000
21.140000
21.100000
21.130000
21.080000
21.100000
21.050000
21.080000
21.040000
21.090000
21.050000
21.000000
21.050000
21.030000
21.020000
20.970000
20.930000
20.890000
20.850000
20.900000
20.980000
20.930000
20.900000
20.860000
20.920000
20.870000
20.900000
20.950000
21.040000
21.100000
21.080000
21.120000
21.080000
21.120000
21.070000
21.060000
21.050000
21.010000
21.010000
21.120000
21.090000
21.050000
21.000000
21.050000
21.000000
20.970000
20.930000
20.930000
20.960000
20.940000
20.900000
20.960000
20.980000
21.020000
21.040000
21.060000
21.090000
21.120000
21.080000
21.030000
21.070000
21.090000
21.050000
21.100000
21.040000
21.090000
21.120000
21.100000
21.170000
21.240000
21.300000
21.360000
21.330000
21.360000
21.370000
21.330000
21.290000
21.330000
21.270000
21.250000
21.210000
21.270000
21.260000
21.230000
21.210000
21.230000
21.270000
21.330000
21.340000
21.380000
21.340000
21.360000
21.540000
21.490000
21.510000
21.560000
21.550000
21.500000
21.480000
21.480000
21.510000
21.470000
21.450000
21.490000
21.440000
21.470000
21.420000
21.480000
21.520000
21.480000
21.530000
21.590000
21.620000
21.640000
21.590000
21.580000
21.630000
21.590000
21.550000
21.590000
21.570000
21.590000
21.640000
21.650000
21.590000
21.580000
21.550000
21.510000
21.500000
21.520000
21.540000
21.520000
21.530000
21.530000
21.580000
21.640000
21.720000
21.730000
21.720000
21.730000
21.720000
21.740000
21.720000
21.790000
21.740000
21.770000
21.740000
21.710000
21.720000
21.770000
21.730000
21.700000
21.650000
21.610000
21.650000
21.610000
21.680000
21.660000
21.700000
21.720000
21.730000
21.670000
21.690000
21.710000
21.680000
21.750000
21.690000
21.720000
21.800000
21.830000
21.770000
21.730000
21.720000
21.790000
21.870000
21.890000
21.850000
21.870000
21.900000
21.870000
21.890000
21.950000
21.930000
21.970000
21.940000
21.890000
21.830000
21.810000
21.740000
21.750000
21.740000
21.760000
21.780000
21.790000
21.780000
21.790000
21.830000
21.840000
21.800000
21.830000
21.790000
21.860000
21.850000
21.830000
21.900000
21.950000
21.930000
21.950000
21.980000
22.030000
21.990000
22.010000
21.970000
22.010000
21.970000
21.920000
21.880000
21.950000
21.950000
21.980000
21.980000
21.950000
21.970000
21.990000
21.950000
21.900000
21.850000
21.840000
21.880000
21.900000
21.920000
21.900000
21.910000
21.940000
21.930000
21.930000
21.880000
21.940000
21.930000
21.970000
21.960000
21.960000
21.900000
21.940000
21.900000
21.880000
21.890000
21.960000
22.030000
22.060000
22.020000
22.000000
21.950000
21.980000
21.960000
21.950000
21.970000
22.010000
22.030000
21.970000
21.930000
21.940000
21.950000
22.030000
22.050000
22.070000
22.080000
22.110000
22.070000
22.070000
22.090000
22.080000
22.090000
22.060000
22.020000
21.960000
21.950000
21.930000
21.880000
21.870000
21.910000
21.950000
21.960000
21.980000
22.010000
21.980000
21.950000
21.930000
21.990000
21.940000
21.930000
21.960000
22.030000
21.980000
21.970000
21.920000
21.990000
21.940000
21.900000
21.920000
21.950000
22.040000
22.080000
22.210000
22.250000
22.250000
22.220000
22.240000
22.280000
22.340000
22.390000
22.450000
22.470000
22.510000
22.510000
22.480000
22.460000
22.430000
22.470000
22.470000
22.480000
22.560000
22.610000
22.560000
22.500000
22.550000
22.510000
22.510000
22.520000
22.460000
22.540000
22.500000
22.520000
22.520000
22.560000
22.600000
22.550000
22.610000
22.630000
22.620000
22.580000
22.630000
22.640000
22.630000
22.620000
22.630000
22.610000
22.620000
22.620000
22.580000
22.530000
22.530000
22.570000
22.520000
22.580000
22.570000
22.590000
22.560000
22.530000
22.520000
22.520000
22.530000
22.500000
22.550000
22.500000
22.510000
22.520000
22.550000
22.600000
22.630000
22.640000
22.660000
22.710000
22.650000
22.660000
22.650000
22.620000
22.580000
22.590000
22.590000
22.620000
22.610000
22.640000
22.610000
22.610000
22.570000
22.600000
22.600000
22.660000
22.680000
22.640000
22.600000
22.600000
22.630000
22.680000
22.630000
22.590000
22.590000
22.550000
22.630000
22.600000
22.590000
22.590000
22.570000
22.620000
22.670000
22.640000
22.670000
22.610000
22.580000
22.600000
22.560000
22.570000
22.550000
22.570000
22.670000
22.720000
22.690000
22.650000
22.600000
22.580000
22.590000
22.580000
22.590000
22.640000
22.640000
22.610000
22.630000
22.610000
22.570000
22.520000
22.510000
22.510000
22.620000
22.570000
22.650000
22.600000
22.610000
22.680000
22.700000
22.710000
22.660000
22.630000
22.650000
22.640000
22.670000
22.610000
22.620000
22.670000
22.630000
22.700000
22.680000
22.740000
22.800000
22.800000
22.850000
22.820000
22.790000
22.790000
22.760000
22.710000
22.720000
22.740000
22.720000
22.710000
22.730000
22.770000
22.800000
22.830000
22.770000
22.800000
22.800000
22.800000
22.760000
22.800000
22.820000
22.840000
22.850000
22.870000
22.880000
22.830000
22.780000
22.740000
22.750000
22.750000
22.740000
22.740000
22.700000
22.660000
22.630000
22.690000
22.690000
22.660000
22.690000
22.650000
22.670000
22.730000
22.730000
22.750000
22.710000
22.660000
22.730000
22.760000
22.780000
22.830000
22.780000
22.840000
22.830000
22.840000
22.770000
22.780000
22.780000
22.740000
22.800000
22.820000
22.860000
22.800000
22.740000
22.690000
22.660000
22.670000
22.620000
22.670000
22.740000
22.780000
22.810000
22.790000
22.810000
22.770000
22.740000
22.780000
22.730000
22.800000
22.770000
22.770000
22.740000
22.690000
22.720000
22.710000
22.660000
22.610000
22.590000
22.540000
22.520000
22.580000
22.580000
22.590000
22.540000
22.550000
22.550000
22.500000
22.530000
22.500000
22.460000
22.420000
22.360000
22.300000
22.250000
22.250000
22.320000
22.410000
22.420000
22.410000
22.370000
22.350000
22.400000
22.410000
22.400000
22.470000
22.440000
22.410000
22.390000
22.350000
22.400000
22.340000
22.330000
22.350000
22.390000
22.450000
22.420000
22.400000
22.410000
22.380000
22.350000
22.380000
22.430000
22.440000
22.400000
22.360000
22.320000
22.260000
22.210000
22.260000
22.230000
22.240000
22.260000
22.280000
22.250000
22.290000
22.240000
22.240000
22.280000
22.230000
22.250000
22.210000
22.170000
22.210000
22.270000
22.260000
22.270000
22.340000
22.340000
22.340000
22.410000
22.430000
22.420000
22.430000
22.380000
22.330000
22.360000
22.310000
22.260000
22.240000
22.280000
22.260000
22.240000
22.190000
22.170000
22.160000
22.200000
22.190000
22.170000
22.140000
22.140000
22.180000
22.130000
22.130000
22.140000
22.110000
22.090000
22.110000
22.150000
22.100000
22.090000
22.090000
22.050000
22.030000
21.980000
22.030000
22.060000
22.140000
22.140000
22.150000
22.150000
22.100000
22.080000
22.080000
22.060000
22.060000
22.010000
22.000000
22.060000
22.170000
22.160000
22.120000
22.130000
22.090000
22.040000
22.000000
22.040000
21.980000
21.990000
21.980000
21.950000
21.950000
21.980000
21.970000
22.010000
22.040000
22.080000
22.050000
22.000000
21.990000
21.950000
21.900000
21.950000
21.910000
21.920000
21.940000
21.940000
21.910000
21.930000
21.910000
21.890000
21.860000
21.870000
21.870000
21.840000
21.900000
21.860000
21.950000
21.920000
21.880000
21.880000
21.830000
21.880000
21.940000
21.940000
21.970000
21.960000
22.040000
22.000000
22.010000
21.960000
21.920000
21.900000
21.900000
21.890000
21.870000
21.840000
21.880000
21.830000
21.880000
21.830000
21.810000
21.760000
21.710000
21.680000
21.660000
21.720000
21.750000
21.780000
21.810000
21.840000
21.820000
21.880000
21.880000
21.900000
21.920000
21.890000
21.850000
21.900000
21.900000
21.850000
21.870000
21.870000
21.840000
21.850000
21.860000
21.850000
21.920000
21.870000
21.850000
21.800000
21.790000
21.810000
21.840000
21.920000
21.940000
21.890000
21.920000
21.930000
21.950000
21.990000
22.050000
22.010000
22.000000
21.950000
21.990000
21.960000
21.950000
21.930000
21.970000
21.950000
21.950000
21.980000
21.950000
21.930000
21.940000
21.940000
21.950000
21.950000
21.930000
22.010000
22.040000
21.990000
22.020000
21.980000
22.020000
22.030000
21.980000
22.020000
21.970000
22.050000
22.020000
21.990000
21.950000
21.980000
21.980000
22.030000
22.030000
21.990000
22.030000
22.010000
22.020000
22.040000
22.050000
22.130000
22.130000
22.080000
22.070000
22.080000
22.050000
22.100000
22.060000
22.040000
22.070000
22.080000
22.040000
22.100000
22.060000
22.050000
22.040000
22.070000
22.090000
22.120000
22.160000
22.170000
22.140000
22.100000
22.140000
22.130000
22.090000
22.060000
22.010000
22.050000
22.100000
22.100000
22.110000
22.110000
22.110000
22.180000
22.180000
22.170000
22.110000
22.070000
22.060000
22.030000
21.980000
21.960000
21.970000
21.930000
21.890000
21.850000
21.840000
21.810000
21.780000
21.820000
21.870000
21.980000
22.020000
22.110000
22.120000
22.170000
22.110000
22.080000
22.130000
22.180000
22.130000
22.150000
22.190000
22.170000
22.180000
22.200000
22.280000
22.220000
22.200000
22.200000
22.170000
22.130000
22.080000
22.070000
22.040000
22.090000
22.040000
22.100000
22.130000
22.120000
22.070000
22.020000
22.010000
22.040000
22.020000
21.990000
21.980000
21.970000
21.960000
21.980000
22.040000
22.020000
22.070000
22.060000
22.050000
22.040000
22.000000
21.990000
21.980000
22.000000
22.060000
22.150000
22.260000
22.240000
22.290000
22.290000
22.350000
22.350000
22.330000
22.360000
22.380000
22.340000
22.340000
22.370000
22.350000
22.370000
22.360000
22.380000
22.330000
22.280000
22.300000
22.260000
22.250000
22.290000
22.280000
22.220000
22.170000
22.140000
22.080000
22.110000
22.180000
22.150000
22.130000
22.090000
22.130000
22.080000
22.060000
22.110000
22.070000
22.080000
22.100000
22.130000
22.100000
22.110000
22.070000
22.030000
22.020000
21.990000
22.000000
22.040000
22.000000
21.960000
22.030000
22.020000
22.080000
22.040000
22.090000
22.140000
22.180000
22.190000
22.140000
22.160000
22.140000
22.100000
22.180000
22.210000
22.200000
22.200000
22.210000
22.190000
22.140000
22.170000
22.140000
22.180000
22.130000
22.090000
22.110000
22.100000
22.090000
22.080000
22.090000
22.080000
22.080000
22.040000
21.990000
21.990000
21.950000
22.010000
22.020000
22.070000
22.130000
22.140000
22.100000
22.130000
22.180000
22.150000
22.090000
22.120000
22.150000
22.130000
22.150000
22.220000
22.170000
22.190000
22.190000
22.130000
22.140000
22.150000
22.110000
22.060000
22.020000
22.020000
22.040000
22.010000
22.080000
22.140000
22.130000
22.090000
22.090000
22.060000
22.010000
22.050000
22.060000
22.070000
22.130000
22.170000
22.150000
22.190000
22.220000
22.230000
22.240000
22.230000
22.180000
22.150000
22.100000
22.100000
22.150000
22.150000
22.130000
22.090000
22.070000
22.040000
22.000000
22.060000
22.120000
22.090000
22.100000
22.060000
22.100000
22.150000
22.140000
22.140000
22.110000
22.110000
22.160000
22.140000
22.090000
22.070000
22.080000
22.090000
22.070000
22.080000
22.060000
22.090000
22.100000
22.160000
22.160000
22.210000
22.200000
22.170000
22.190000
22.150000
22.150000
22.150000
22.150000
22.140000
22.220000
22.170000
22.190000
22.190000
22.150000
22.150000
22.150000
22.150000
22.100000
22.090000
22.120000
22.130000
22.170000
22.170000
22.180000
22.160000
22.130000
22.120000
22.130000
22.090000
22.080000
22.080000
22.080000
22.050000
22.050000
22.050000
22.070000
22.020000
22.040000
22.000000
21.990000
21.970000
21.960000
21.990000
22.070000
22.110000
22.090000
22.120000
22.130000
22.150000
22.130000
22.120000
22.120000
22.180000
22.130000
22.090000
22.080000
22.100000
22.090000
22.120000
22.110000
22.130000
22.140000
22.090000
22.060000
22.110000
22.130000
22.100000
22.150000
22.220000
22.220000
22.170000
22.190000
22.240000
22.210000
22.170000
22.240000
22.270000
22.300000
22.360000
22.350000
22.310000
22.350000
22.330000
22.310000
22.330000
22.330000
22.310000
22.300000
22.260000
22.230000
22.220000
22.200000
22.160000
22.140000
22.090000
22.090000
22.060000
22.090000
22.090000
22.100000
22.100000
22.130000
22.100000
22.090000
22.040000
22.030000
22.040000
21.990000
21.990000
22.000000
22.010000
21.990000
21.970000
21.960000
21.940000
21.930000
21.940000
21.890000
21.840000
21.850000
21.850000
21.900000
21.850000
21.800000
21.780000
21.780000
21.800000
21.840000
21.880000
21.890000
21.870000
21.860000
21.860000
21.870000
21.830000
21.780000
21.880000
21.890000
21.890000
21.850000
21.860000
21.890000
21.900000
21.900000
21.910000
21.870000
21.890000
21.920000
21.890000
21.870000
21.820000
21.840000
21.810000
21.780000
21.780000
21.790000
21.880000
21.860000
21.890000
21.950000
21.970000
22.000000
22.040000
22.010000
22.010000
22.000000
21.950000
21.930000
21.950000
21.980000
22.030000
22.060000
22.020000
22.010000
22.060000
22.030000
22.110000
22.120000
22.060000
22.030000
22.000000
21.950000
21.990000
22.010000
22.030000
22.010000
22.000000
22.000000
21.960000
21.930000
21.880000
21.910000
21.960000
22.000000
22.090000
22.100000
22.110000
22.090000
22.110000
22.070000
22.060000
22.010000
22.010000
22.030000
22.040000
22.030000
22.010000
22.050000
22.010000
22.060000
22.070000
22.090000
22.170000
22.210000
22.180000
22.150000
22.220000
22.280000
22.230000
22.230000
22.200000
22.190000
22.140000
22.090000
22.040000
22.050000
22.010000
22.030000
22.130000
22.160000
22.270000
22.250000
22.250000
22.210000
22.170000
22.240000
22.320000
22.420000
22.390000
22.470000
22.480000
22.450000
22.470000
22.460000
22.520000
22.470000
22.450000
22.460000
22.460000
22.490000
22.500000
22.500000
22.510000
22.550000
22.520000
22.480000
22.420000
22.410000
22.430000
